id;name;description;created_at;updated_at
1;Alvina;Kaliszewski;2018-11-30T18:35:24.00Z;2018-11-30T18:35:24.00Z
2;Harv;Bing;2018-11-30T18:35:24.00Z;2018-11-30T18:35:24.00Z
3;Amity;Giacomuzzi;2018-11-30T18:35:24.00Z;2018-11-30T18:35:24.00Z
4;Liliane;Hanner;2018-11-30T18:35:24.00Z;2018-11-30T18:35:24.00Z
5;Bendick;Simko;2018-11-30T18:35:24.00Z;2018-11-30T18:35:24.00Z
6;Winnifred;Heugel;2018-11-30T18:35:24.00Z;2018-11-30T18:35:24.00Z
7;Nollie;Ranby;2018-11-30T18:35:24.00Z;2018-11-30T18:35:24.00Z
8;Burg;Racine;2018-11-30T18:35:24.00Z;2018-11-30T18:35:24.00Z
9;Costanza;Bolwell;2018-11-30T18:35:24.00Z;2018-11-30T18:35:24.00Z
10;Michail;Huddy;2018-11-30T18:35:24.00Z;2018-11-30T18:35:24.00Z
11;Mannie;Brikner;2018-11-30T18:35:24.00Z;2018-11-30T18:35:24.00Z
12;Norris;Bondar;2018-11-30T18:35:24.00Z;2018-11-30T18:35:24.00Z
13;Benton;Ceschi;2018-11-30T18:35:24.00Z;2018-11-30T18:35:24.00Z
14;Isis;Kenneford;2018-11-30T18:35:24.00Z;2018-11-30T18:35:24.00Z
15;Mandel;Crathorne;2018-11-30T18:35:24.00Z;2018-11-30T18:35:24.00Z
16;Eirena;Moubray;2018-11-30T18:35:24.00Z;2018-11-30T18:35:24.00Z
17;Bibby;Spillett;2018-11-30T18:35:24.00Z;2018-11-30T18:35:24.00Z
18;Leone;Nutten;2018-11-30T18:35:24.00Z;2018-11-30T18:35:24.00Z
19;Lou;Tuffell;2018-11-30T18:35:24.00Z;2018-11-30T18:35:24.00Z
20;Horatius;Aitken;2018-11-30T18:35:24.00Z;2018-11-30T18:35:24.00Z
21;Shandee;Kinnaird;2018-11-30T18:35:24.00Z;2018-11-30T18:35:24.00Z
22;Elyn;Mothersole;2018-11-30T18:35:24.00Z;2018-11-30T18:35:24.00Z
23;Sara-ann;Doniso;2018-11-30T18:35:24.00Z;2018-11-30T18:35:24.00Z
24;Madlen;Cawthry;2018-11-30T18:35:24.00Z;2018-11-30T18:35:24.00Z
25;Myca;Drew-Clifton;2018-11-30T18:35:24.00Z;2018-11-30T18:35:24.00Z
26;Sauncho;Shimmings;2018-11-30T18:35:24.00Z;2018-11-30T18:35:24.00Z
27;Bryn;Geraudy;2018-11-30T18:35:24.00Z;2018-11-30T18:35:24.00Z
28;Maddie;Tritton;2018-11-30T18:35:24.00Z;2018-11-30T18:35:24.00Z
29;Catherine;Codeman;2018-11-30T18:35:24.00Z;2018-11-30T18:35:24.00Z
30;Filide;Turnell;2018-11-30T18:35:24.00Z;2018-11-30T18:35:24.00Z
31;Willyt;Hallowell;2018-11-30T18:35:24.00Z;2018-11-30T18:35:24.00Z
32;Shay;Pledger;2018-11-30T18:35:24.00Z;2018-11-30T18:35:24.00Z
33;Thurstan;Boxe;2018-11-30T18:35:24.00Z;2018-11-30T18:35:24.00Z
34;Laurena;Goulden;2018-11-30T18:35:24.00Z;2018-11-30T18:35:24.00Z
35;Hetti;Lindro;2018-11-30T18:35:24.00Z;2018-11-30T18:35:24.00Z
36;Saxe;Swanborrow;2018-11-30T18:35:24.00Z;2018-11-30T18:35:24.00Z
37;Benedict;Arter;2018-11-30T18:35:24.00Z;2018-11-30T18:35:24.00Z
38;Tulley;Da Costa;2018-11-30T18:35:24.00Z;2018-11-30T18:35:24.00Z
39;Fin;Cricket;2018-11-30T18:35:24.00Z;2018-11-30T18:35:24.00Z
40;Tremayne;Swayte;2018-11-30T18:35:24.00Z;2018-11-30T18:35:24.00Z
41;Caitlin;Piscopello;2018-11-30T18:35:24.00Z;2018-11-30T18:35:24.00Z
42;Kendra;Troughton;2018-11-30T18:35:24.00Z;2018-11-30T18:35:24.00Z
43;Norton;Westoll;2018-11-30T18:35:24.00Z;2018-11-30T18:35:24.00Z
44;Christalle;Galbreth;2018-11-30T18:35:24.00Z;2018-11-30T18:35:24.00Z
45;Katrine;Bickerstasse;2018-11-30T18:35:24.00Z;2018-11-30T18:35:24.00Z
46;Heinrick;Pyffe;2018-11-30T18:35:24.00Z;2018-11-30T18:35:24.00Z
47;Danni;Huikerby;2018-11-30T18:35:24.00Z;2018-11-30T18:35:24.00Z
48;Glenda;Bassindale;2018-11-30T18:35:24.00Z;2018-11-30T18:35:24.00Z
49;Benni;Meaton;2018-11-30T18:35:24.00Z;2018-11-30T18:35:24.00Z
50;Edsel;Janney;2018-11-30T18:35:24.00Z;2018-11-30T18:35:24.00Z
51;Wynn;Somersett;2018-11-30T18:35:24.00Z;2018-11-30T18:35:24.00Z
52;Giordano;Heaviside;2018-11-30T18:35:24.00Z;2018-11-30T18:35:24.00Z
53;Betti;Cracoe;2018-11-30T18:35:24.00Z;2018-11-30T18:35:24.00Z
54;Aviva;McCurt;2018-11-30T18:35:24.00Z;2018-11-30T18:35:24.00Z
55;Dara;De Rye Barrett;2018-11-30T18:35:24.00Z;2018-11-30T18:35:24.00Z
56;Emyle;Attawell;2018-11-30T18:35:24.00Z;2018-11-30T18:35:24.00Z
57;Moise;Currm;2018-11-30T18:35:24.00Z;2018-11-30T18:35:24.00Z
58;Cam;Partener;2018-11-30T18:35:24.00Z;2018-11-30T18:35:24.00Z
59;Christel;Portigall;2018-11-30T18:35:24.00Z;2018-11-30T18:35:24.00Z
60;Ileana;Blagburn;2018-11-30T18:35:24.00Z;2018-11-30T18:35:24.00Z
61;Abelard;Cornock;2018-11-30T18:35:24.00Z;2018-11-30T18:35:24.00Z
62;Roshelle;Lucy;2018-11-30T18:35:24.00Z;2018-11-30T18:35:24.00Z
63;Letisha;Lacase;2018-11-30T18:35:24.00Z;2018-11-30T18:35:24.00Z
64;Muffin;McGann;2018-11-30T18:35:24.00Z;2018-11-30T18:35:24.00Z
65;Nathan;Thynne;2018-11-30T18:35:24.00Z;2018-11-30T18:35:24.00Z
66;Fredericka;Rose;2018-11-30T18:35:24.00Z;2018-11-30T18:35:24.00Z
67;Godfrey;Spalding;2018-11-30T18:35:24.00Z;2018-11-30T18:35:24.00Z
68;Charleen;Geillier;2018-11-30T18:35:24.00Z;2018-11-30T18:35:24.00Z
69;Karissa;De Laci;2018-11-30T18:35:24.00Z;2018-11-30T18:35:24.00Z
70;Ced;Counsell;2018-11-30T18:35:24.00Z;2018-11-30T18:35:24.00Z
71;Cyb;Brugman;2018-11-30T18:35:24.00Z;2018-11-30T18:35:24.00Z
72;Nydia;Lansberry;2018-11-30T18:35:24.00Z;2018-11-30T18:35:24.00Z
73;Teddy;Sturte;2018-11-30T18:35:24.00Z;2018-11-30T18:35:24.00Z
74;Harwell;Crickett;2018-11-30T18:35:24.00Z;2018-11-30T18:35:24.00Z
75;Bettye;Line;2018-11-30T18:35:24.00Z;2018-11-30T18:35:24.00Z
76;Phineas;St Ledger;2018-11-30T18:35:24.00Z;2018-11-30T18:35:24.00Z
77;Grata;Stopher;2018-11-30T18:35:24.00Z;2018-11-30T18:35:24.00Z
78;Lorie;Kimbury;2018-11-30T18:35:24.00Z;2018-11-30T18:35:24.00Z
79;Chalmers;McGaugan;2018-11-30T18:35:24.00Z;2018-11-30T18:35:24.00Z
80;Harry;Dake;2018-11-30T18:35:24.00Z;2018-11-30T18:35:24.00Z
81;Ransom;Aimson;2018-11-30T18:35:24.00Z;2018-11-30T18:35:24.00Z
82;Reeva;de Zamora;2018-11-30T18:35:24.00Z;2018-11-30T18:35:24.00Z
83;Sacha;Morden;2018-11-30T18:35:24.00Z;2018-11-30T18:35:24.00Z
84;Cash;Pratte;2018-11-30T18:35:24.00Z;2018-11-30T18:35:24.00Z
85;Jobye;Flecknoe;2018-11-30T18:35:24.00Z;2018-11-30T18:35:24.00Z
86;Carter;Tustin;2018-11-30T18:35:24.00Z;2018-11-30T18:35:24.00Z
87;Davey;McDonald;2018-11-30T18:35:24.00Z;2018-11-30T18:35:24.00Z
88;Lida;Tanguy;2018-11-30T18:35:24.00Z;2018-11-30T18:35:24.00Z
89;Ailene;Tallon;2018-11-30T18:35:24.00Z;2018-11-30T18:35:24.00Z
90;Teodoro;Beldom;2018-11-30T18:35:24.00Z;2018-11-30T18:35:24.00Z
91;Jessamyn;MacRinn;2018-11-30T18:35:24.00Z;2018-11-30T18:35:24.00Z
92;Antony;Edington;2018-11-30T18:35:24.00Z;2018-11-30T18:35:24.00Z
93;Sophronia;Lawrenceson;2018-11-30T18:35:24.00Z;2018-11-30T18:35:24.00Z
94;Ardyth;Medford;2018-11-30T18:35:24.00Z;2018-11-30T18:35:24.00Z
95;Kimberlee;Gregoriou;2018-11-30T18:35:24.00Z;2018-11-30T18:35:24.00Z
96;Juanita;Losel;2018-11-30T18:35:24.00Z;2018-11-30T18:35:24.00Z
97;Britt;Hearnah;2018-11-30T18:35:24.00Z;2018-11-30T18:35:24.00Z
98;Olwen;Hassewell;2018-11-30T18:35:24.00Z;2018-11-30T18:35:24.00Z
99;Wandie;Christoffe;2018-11-30T18:35:24.00Z;2018-11-30T18:35:24.00Z
100;Emili;Older;2018-11-30T18:35:24.00Z;2018-11-30T18:35:24.00Z
101;Justina;Dyson;2018-11-30T18:35:24.00Z;2018-11-30T18:35:24.00Z
102;Ruthi;Parkes;2018-11-30T18:35:24.00Z;2018-11-30T18:35:24.00Z
103;Daisie;Delgardillo;2018-11-30T18:35:24.00Z;2018-11-30T18:35:24.00Z
104;Noelani;Emerson;2018-11-30T18:35:24.00Z;2018-11-30T18:35:24.00Z
105;Maryl;Ferrarese;2018-11-30T18:35:24.00Z;2018-11-30T18:35:24.00Z
106;Danna;Bohike;2018-11-30T18:35:24.00Z;2018-11-30T18:35:24.00Z
107;Harry;Cansdall;2018-11-30T18:35:24.00Z;2018-11-30T18:35:24.00Z
108;Allyn;Booeln;2018-11-30T18:35:24.00Z;2018-11-30T18:35:24.00Z
109;Jill;Reggio;2018-11-30T18:35:24.00Z;2018-11-30T18:35:24.00Z
110;Austen;Kochel;2018-11-30T18:35:24.00Z;2018-11-30T18:35:24.00Z
111;Erminia;Gyford;2018-11-30T18:35:24.00Z;2018-11-30T18:35:24.00Z
112;Terry;Daintier;2018-11-30T18:35:24.00Z;2018-11-30T18:35:24.00Z
113;Chadd;Clere;2018-11-30T18:35:24.00Z;2018-11-30T18:35:24.00Z
114;Franny;Petken;2018-11-30T18:35:24.00Z;2018-11-30T18:35:24.00Z
115;Hillier;Fitton;2018-11-30T18:35:24.00Z;2018-11-30T18:35:24.00Z
116;Goddard;Abrahart;2018-11-30T18:35:24.00Z;2018-11-30T18:35:24.00Z
117;Tracy;Mustarde;2018-11-30T18:35:24.00Z;2018-11-30T18:35:24.00Z
118;Shaylynn;Epps;2018-11-30T18:35:24.00Z;2018-11-30T18:35:24.00Z
119;Carmelle;Boxen;2018-11-30T18:35:24.00Z;2018-11-30T18:35:24.00Z
120;Pris;Swane;2018-11-30T18:35:24.00Z;2018-11-30T18:35:24.00Z
121;Sandra;Lambkin;2018-11-30T18:35:24.00Z;2018-11-30T18:35:24.00Z
122;Bernadette;D'Aguanno;2018-11-30T18:35:24.00Z;2018-11-30T18:35:24.00Z
123;Lawry;Cottel;2018-11-30T18:35:24.00Z;2018-11-30T18:35:24.00Z
124;Cyndy;Klagge;2018-11-30T18:35:24.00Z;2018-11-30T18:35:24.00Z
125;Janaye;Leidl;2018-11-30T18:35:24.00Z;2018-11-30T18:35:24.00Z
126;Constantino;Milstead;2018-11-30T18:35:24.00Z;2018-11-30T18:35:24.00Z
127;Nert;Laughnan;2018-11-30T18:35:24.00Z;2018-11-30T18:35:24.00Z
128;Damiano;Keattch;2018-11-30T18:35:24.00Z;2018-11-30T18:35:24.00Z
129;Yank;Lidstone;2018-11-30T18:35:24.00Z;2018-11-30T18:35:24.00Z
130;Joycelin;Gatley;2018-11-30T18:35:24.00Z;2018-11-30T18:35:24.00Z
131;Marja;Wormstone;2018-11-30T18:35:24.00Z;2018-11-30T18:35:24.00Z
132;Melodee;Rigbye;2018-11-30T18:35:24.00Z;2018-11-30T18:35:24.00Z
133;Risa;Scudamore;2018-11-30T18:35:24.00Z;2018-11-30T18:35:24.00Z
134;Paquito;Maddinon;2018-11-30T18:35:24.00Z;2018-11-30T18:35:24.00Z
135;Marlowe;Nathan;2018-11-30T18:35:24.00Z;2018-11-30T18:35:24.00Z
136;Gearard;Dabels;2018-11-30T18:35:24.00Z;2018-11-30T18:35:24.00Z
137;Felicdad;Aldis;2018-11-30T18:35:24.00Z;2018-11-30T18:35:24.00Z
138;Drona;Lambert-Ciorwyn;2018-11-30T18:35:24.00Z;2018-11-30T18:35:24.00Z
139;Kelcey;Caunce;2018-11-30T18:35:24.00Z;2018-11-30T18:35:24.00Z
140;Giffie;Timson;2018-11-30T18:35:24.00Z;2018-11-30T18:35:24.00Z
141;Leonidas;McLane;2018-11-30T18:35:24.00Z;2018-11-30T18:35:24.00Z
142;Filippa;Reimers;2018-11-30T18:35:24.00Z;2018-11-30T18:35:24.00Z
143;Titos;Toffano;2018-11-30T18:35:24.00Z;2018-11-30T18:35:24.00Z
144;Bathsheba;Merrydew;2018-11-30T18:35:24.00Z;2018-11-30T18:35:24.00Z
145;Yanaton;Baudi;2018-11-30T18:35:24.00Z;2018-11-30T18:35:24.00Z
146;Karisa;Agate;2018-11-30T18:35:24.00Z;2018-11-30T18:35:24.00Z
147;Sarette;Stevens;2018-11-30T18:35:24.00Z;2018-11-30T18:35:24.00Z
148;Perle;Tingey;2018-11-30T18:35:24.00Z;2018-11-30T18:35:24.00Z
149;Horatius;Vamplus;2018-11-30T18:35:24.00Z;2018-11-30T18:35:24.00Z
150;Barry;Berresford;2018-11-30T18:35:24.00Z;2018-11-30T18:35:24.00Z
151;Jon;Gyde;2018-11-30T18:35:24.00Z;2018-11-30T18:35:24.00Z
152;Tab;Lehrmann;2018-11-30T18:35:24.00Z;2018-11-30T18:35:24.00Z
153;Griffin;Mates;2018-11-30T18:35:24.00Z;2018-11-30T18:35:24.00Z
154;Harold;Woolpert;2018-11-30T18:35:24.00Z;2018-11-30T18:35:24.00Z
155;Norry;Dootson;2018-11-30T18:35:24.00Z;2018-11-30T18:35:24.00Z
156;Cecelia;Karolczyk;2018-11-30T18:35:24.00Z;2018-11-30T18:35:24.00Z
157;Heloise;Pendle;2018-11-30T18:35:24.00Z;2018-11-30T18:35:24.00Z
158;Clement;Eaglesham;2018-11-30T18:35:24.00Z;2018-11-30T18:35:24.00Z
159;Jeralee;Attfield;2018-11-30T18:35:24.00Z;2018-11-30T18:35:24.00Z
160;Micheal;Yokelman;2018-11-30T18:35:24.00Z;2018-11-30T18:35:24.00Z
161;Renie;Begent;2018-11-30T18:35:24.00Z;2018-11-30T18:35:24.00Z
162;Leesa;Delwater;2018-11-30T18:35:24.00Z;2018-11-30T18:35:24.00Z
163;Elijah;Cescot;2018-11-30T18:35:24.00Z;2018-11-30T18:35:24.00Z
164;Maje;Boulstridge;2018-11-30T18:35:24.00Z;2018-11-30T18:35:24.00Z
165;Meryl;Hawksby;2018-11-30T18:35:24.00Z;2018-11-30T18:35:24.00Z
166;Marylin;Szwarc;2018-11-30T18:35:24.00Z;2018-11-30T18:35:24.00Z
167;Adoree;Hrus;2018-11-30T18:35:24.00Z;2018-11-30T18:35:24.00Z
168;Natalya;Cecely;2018-11-30T18:35:24.00Z;2018-11-30T18:35:24.00Z
169;Udale;Grinsdale;2018-11-30T18:35:24.00Z;2018-11-30T18:35:24.00Z
170;Ettore;Dunphy;2018-11-30T18:35:24.00Z;2018-11-30T18:35:24.00Z
171;Luelle;Vearncomb;2018-11-30T18:35:24.00Z;2018-11-30T18:35:24.00Z
172;Munroe;Yakebovitch;2018-11-30T18:35:24.00Z;2018-11-30T18:35:24.00Z
173;Jennifer;Spoole;2018-11-30T18:35:24.00Z;2018-11-30T18:35:24.00Z
174;Vallie;Frondt;2018-11-30T18:35:24.00Z;2018-11-30T18:35:24.00Z
175;Augustine;Kenningham;2018-11-30T18:35:24.00Z;2018-11-30T18:35:24.00Z
176;Druci;Leaning;2018-11-30T18:35:24.00Z;2018-11-30T18:35:24.00Z
177;Katherine;Elsby;2018-11-30T18:35:24.00Z;2018-11-30T18:35:24.00Z
178;Tammy;Scudder;2018-11-30T18:35:24.00Z;2018-11-30T18:35:24.00Z
179;Manny;Durham;2018-11-30T18:35:24.00Z;2018-11-30T18:35:24.00Z
180;Gale;Broady;2018-11-30T18:35:24.00Z;2018-11-30T18:35:24.00Z
181;Devi;Dymond;2018-11-30T18:35:24.00Z;2018-11-30T18:35:24.00Z
182;Yuri;Paydon;2018-11-30T18:35:24.00Z;2018-11-30T18:35:24.00Z
183;Kristos;Linnard;2018-11-30T18:35:24.00Z;2018-11-30T18:35:24.00Z
184;Gena;Pawsey;2018-11-30T18:35:24.00Z;2018-11-30T18:35:24.00Z
185;Norry;Stonebridge;2018-11-30T18:35:24.00Z;2018-11-30T18:35:24.00Z
186;Eloisa;Antonsson;2018-11-30T18:35:24.00Z;2018-11-30T18:35:24.00Z
187;Alfreda;Pattington;2018-11-30T18:35:24.00Z;2018-11-30T18:35:24.00Z
188;Pamela;Trott;2018-11-30T18:35:24.00Z;2018-11-30T18:35:24.00Z
189;Cyrus;Caldaro;2018-11-30T18:35:24.00Z;2018-11-30T18:35:24.00Z
190;Trenna;Marquese;2018-11-30T18:35:24.00Z;2018-11-30T18:35:24.00Z
191;Silvio;Runciman;2018-11-30T18:35:24.00Z;2018-11-30T18:35:24.00Z
192;Durant;Fincken;2018-11-30T18:35:24.00Z;2018-11-30T18:35:24.00Z
193;Travus;Jellis;2018-11-30T18:35:24.00Z;2018-11-30T18:35:24.00Z
194;Carri;Luff;2018-11-30T18:35:24.00Z;2018-11-30T18:35:24.00Z
195;Ailyn;Ackermann;2018-11-30T18:35:24.00Z;2018-11-30T18:35:24.00Z
196;Omar;Mullinger;2018-11-30T18:35:24.00Z;2018-11-30T18:35:24.00Z
197;Arlene;Argont;2018-11-30T18:35:24.00Z;2018-11-30T18:35:24.00Z
198;Winfield;Stowell;2018-11-30T18:35:24.00Z;2018-11-30T18:35:24.00Z
199;Clemens;Joscelyn;2018-11-30T18:35:24.00Z;2018-11-30T18:35:24.00Z
200;Sybil;Constanza;2018-11-30T18:35:24.00Z;2018-11-30T18:35:24.00Z
201;Nara;Beecheno;2018-11-30T18:35:24.00Z;2018-11-30T18:35:24.00Z
202;Roland;Fullicks;2018-11-30T18:35:24.00Z;2018-11-30T18:35:24.00Z
203;Gertie;Meecher;2018-11-30T18:35:24.00Z;2018-11-30T18:35:24.00Z
204;Dalis;Chatto;2018-11-30T18:35:24.00Z;2018-11-30T18:35:24.00Z
205;Townie;Challender;2018-11-30T18:35:24.00Z;2018-11-30T18:35:24.00Z
206;Peder;Jacketts;2018-11-30T18:35:24.00Z;2018-11-30T18:35:24.00Z
207;Corliss;Windibank;2018-11-30T18:35:24.00Z;2018-11-30T18:35:24.00Z
208;Gaspar;Francklyn;2018-11-30T18:35:24.00Z;2018-11-30T18:35:24.00Z
209;Myriam;Chazier;2018-11-30T18:35:24.00Z;2018-11-30T18:35:24.00Z
210;Sharia;Sucre;2018-11-30T18:35:24.00Z;2018-11-30T18:35:24.00Z
211;James;Bellenger;2018-11-30T18:35:24.00Z;2018-11-30T18:35:24.00Z
212;Gavrielle;Reyes;2018-11-30T18:35:24.00Z;2018-11-30T18:35:24.00Z
213;Anderson;Raden;2018-11-30T18:35:24.00Z;2018-11-30T18:35:24.00Z
214;Mirabel;Gunner;2018-11-30T18:35:24.00Z;2018-11-30T18:35:24.00Z
215;Ed;Cuxson;2018-11-30T18:35:24.00Z;2018-11-30T18:35:24.00Z
216;Deloria;Petty;2018-11-30T18:35:24.00Z;2018-11-30T18:35:24.00Z
217;Rozalie;Gland;2018-11-30T18:35:24.00Z;2018-11-30T18:35:24.00Z
218;Shana;Vesco;2018-11-30T18:35:24.00Z;2018-11-30T18:35:24.00Z
219;Timmy;Chatenier;2018-11-30T18:35:24.00Z;2018-11-30T18:35:24.00Z
220;Ula;Valentim;2018-11-30T18:35:24.00Z;2018-11-30T18:35:24.00Z
221;Kiel;O'Conor;2018-11-30T18:35:24.00Z;2018-11-30T18:35:24.00Z
222;Rosalinde;Cohan;2018-11-30T18:35:24.00Z;2018-11-30T18:35:24.00Z
223;Tait;Burgh;2018-11-30T18:35:24.00Z;2018-11-30T18:35:24.00Z
224;Scotti;Diprose;2018-11-30T18:35:24.00Z;2018-11-30T18:35:24.00Z
225;Sasha;Klassman;2018-11-30T18:35:24.00Z;2018-11-30T18:35:24.00Z
226;Erinn;Klosser;2018-11-30T18:35:24.00Z;2018-11-30T18:35:24.00Z
227;Alice;Churms;2018-11-30T18:35:24.00Z;2018-11-30T18:35:24.00Z
228;Tannie;Moxstead;2018-11-30T18:35:24.00Z;2018-11-30T18:35:24.00Z
229;Carver;Beldan;2018-11-30T18:35:24.00Z;2018-11-30T18:35:24.00Z
230;Hugo;Mouatt;2018-11-30T18:35:24.00Z;2018-11-30T18:35:24.00Z
231;Vidovic;Bend;2018-11-30T18:35:24.00Z;2018-11-30T18:35:24.00Z
232;Ivett;Alsford;2018-11-30T18:35:24.00Z;2018-11-30T18:35:24.00Z
233;Michele;Farley;2018-11-30T18:35:24.00Z;2018-11-30T18:35:24.00Z
234;Olivie;Grise;2018-11-30T18:35:24.00Z;2018-11-30T18:35:24.00Z
235;Cory;Trevena;2018-11-30T18:35:24.00Z;2018-11-30T18:35:24.00Z
236;Pavla;Kiffin;2018-11-30T18:35:24.00Z;2018-11-30T18:35:24.00Z
237;Shelley;Ebbetts;2018-11-30T18:35:24.00Z;2018-11-30T18:35:24.00Z
238;Lanette;Dutnall;2018-11-30T18:35:24.00Z;2018-11-30T18:35:24.00Z
239;Boris;Skep;2018-11-30T18:35:24.00Z;2018-11-30T18:35:24.00Z
240;Leopold;Bucktharp;2018-11-30T18:35:24.00Z;2018-11-30T18:35:24.00Z
241;Lida;Etheredge;2018-11-30T18:35:24.00Z;2018-11-30T18:35:24.00Z
242;Delora;Pentycost;2018-11-30T18:35:24.00Z;2018-11-30T18:35:24.00Z
243;Madelin;Barbe;2018-11-30T18:35:24.00Z;2018-11-30T18:35:24.00Z
244;Carlie;Rihanek;2018-11-30T18:35:24.00Z;2018-11-30T18:35:24.00Z
245;Laryssa;Bladon;2018-11-30T18:35:24.00Z;2018-11-30T18:35:24.00Z
246;Bev;Eard;2018-11-30T18:35:24.00Z;2018-11-30T18:35:24.00Z
247;Tracey;Berceros;2018-11-30T18:35:24.00Z;2018-11-30T18:35:24.00Z
248;Ondrea;Harrismith;2018-11-30T18:35:24.00Z;2018-11-30T18:35:24.00Z
249;Cecil;Harler;2018-11-30T18:35:24.00Z;2018-11-30T18:35:24.00Z
250;Morey;Eyckelbeck;2018-11-30T18:35:24.00Z;2018-11-30T18:35:24.00Z
251;Grissel;Manklow;2018-11-30T18:35:24.00Z;2018-11-30T18:35:24.00Z
252;Lucina;Selbie;2018-11-30T18:35:24.00Z;2018-11-30T18:35:24.00Z
253;Trude;Haibel;2018-11-30T18:35:24.00Z;2018-11-30T18:35:24.00Z
254;Sascha;Knifton;2018-11-30T18:35:24.00Z;2018-11-30T18:35:24.00Z
255;Dody;Jurisic;2018-11-30T18:35:24.00Z;2018-11-30T18:35:24.00Z
256;Glynis;Sketch;2018-11-30T18:35:24.00Z;2018-11-30T18:35:24.00Z
257;Chandler;Ridesdale;2018-11-30T18:35:24.00Z;2018-11-30T18:35:24.00Z
258;Roderich;Worsell;2018-11-30T18:35:24.00Z;2018-11-30T18:35:24.00Z
259;Karlik;Twyning;2018-11-30T18:35:24.00Z;2018-11-30T18:35:24.00Z
260;Quinn;Blackhurst;2018-11-30T18:35:24.00Z;2018-11-30T18:35:24.00Z
261;Katleen;Leverich;2018-11-30T18:35:24.00Z;2018-11-30T18:35:24.00Z
262;Josy;Brandolini;2018-11-30T18:35:24.00Z;2018-11-30T18:35:24.00Z
263;Timothee;Prendergast;2018-11-30T18:35:24.00Z;2018-11-30T18:35:24.00Z
264;Francisco;Rubinovitsch;2018-11-30T18:35:24.00Z;2018-11-30T18:35:24.00Z
265;Verne;Bagster;2018-11-30T18:35:24.00Z;2018-11-30T18:35:24.00Z
266;Arnaldo;Devas;2018-11-30T18:35:24.00Z;2018-11-30T18:35:24.00Z
267;Bertine;Domnick;2018-11-30T18:35:24.00Z;2018-11-30T18:35:24.00Z
268;Alvin;Fulk;2018-11-30T18:35:24.00Z;2018-11-30T18:35:24.00Z
269;Gussi;Stockin;2018-11-30T18:35:24.00Z;2018-11-30T18:35:24.00Z
270;Zorana;Goard;2018-11-30T18:35:24.00Z;2018-11-30T18:35:24.00Z
271;Natka;Armfield;2018-11-30T18:35:24.00Z;2018-11-30T18:35:24.00Z
272;Hildagarde;Ashlin;2018-11-30T18:35:24.00Z;2018-11-30T18:35:24.00Z
273;Clarissa;Oughton;2018-11-30T18:35:24.00Z;2018-11-30T18:35:24.00Z
274;Milly;MacMaykin;2018-11-30T18:35:24.00Z;2018-11-30T18:35:24.00Z
275;Edvard;Wroe;2018-11-30T18:35:24.00Z;2018-11-30T18:35:24.00Z
276;Heidie;Staniland;2018-11-30T18:35:24.00Z;2018-11-30T18:35:24.00Z
277;Blake;Jaqueminet;2018-11-30T18:35:24.00Z;2018-11-30T18:35:24.00Z
278;Lebbie;Hawford;2018-11-30T18:35:24.00Z;2018-11-30T18:35:24.00Z
279;Godiva;Bavin;2018-11-30T18:35:24.00Z;2018-11-30T18:35:24.00Z
280;Consuelo;Fowles;2018-11-30T18:35:24.00Z;2018-11-30T18:35:24.00Z
281;Edna;Cutajar;2018-11-30T18:35:24.00Z;2018-11-30T18:35:24.00Z
282;Keen;Benner;2018-11-30T18:35:24.00Z;2018-11-30T18:35:24.00Z
283;Reginald;Navarro;2018-11-30T18:35:24.00Z;2018-11-30T18:35:24.00Z
284;Henka;Shwalbe;2018-11-30T18:35:24.00Z;2018-11-30T18:35:24.00Z
285;Bevvy;de Clerc;2018-11-30T18:35:24.00Z;2018-11-30T18:35:24.00Z
286;Alexia;Knapton;2018-11-30T18:35:24.00Z;2018-11-30T18:35:24.00Z
287;Miriam;Woodrup;2018-11-30T18:35:24.00Z;2018-11-30T18:35:24.00Z
288;Flint;Beviss;2018-11-30T18:35:24.00Z;2018-11-30T18:35:24.00Z
289;Marcille;Spens;2018-11-30T18:35:24.00Z;2018-11-30T18:35:24.00Z
290;Brenn;Beazer;2018-11-30T18:35:24.00Z;2018-11-30T18:35:24.00Z
291;Charley;Simione;2018-11-30T18:35:24.00Z;2018-11-30T18:35:24.00Z
292;Hilliary;Perree;2018-11-30T18:35:24.00Z;2018-11-30T18:35:24.00Z
293;Bay;O'Ferris;2018-11-30T18:35:24.00Z;2018-11-30T18:35:24.00Z
294;Giraldo;Rosell;2018-11-30T18:35:24.00Z;2018-11-30T18:35:24.00Z
295;Dayle;Arington;2018-11-30T18:35:24.00Z;2018-11-30T18:35:24.00Z
296;Haleigh;Huston;2018-11-30T18:35:24.00Z;2018-11-30T18:35:24.00Z
297;Stephan;O'Dunniom;2018-11-30T18:35:24.00Z;2018-11-30T18:35:24.00Z
298;Genovera;Wales;2018-11-30T18:35:24.00Z;2018-11-30T18:35:24.00Z
299;Linea;Phillp;2018-11-30T18:35:24.00Z;2018-11-30T18:35:24.00Z
300;Ignace;Horbath;2018-11-30T18:35:24.00Z;2018-11-30T18:35:24.00Z
301;Gabriele;Berrygun;2018-11-30T18:35:24.00Z;2018-11-30T18:35:24.00Z
302;Alvan;Scrymgeour;2018-11-30T18:35:24.00Z;2018-11-30T18:35:24.00Z
303;Gail;Gerraty;2018-11-30T18:35:24.00Z;2018-11-30T18:35:24.00Z
304;Laurella;Weedon;2018-11-30T18:35:24.00Z;2018-11-30T18:35:24.00Z
305;Dorthea;Brasse;2018-11-30T18:35:24.00Z;2018-11-30T18:35:24.00Z
306;Ingmar;Meysham;2018-11-30T18:35:24.00Z;2018-11-30T18:35:24.00Z
307;Flynn;Albery;2018-11-30T18:35:24.00Z;2018-11-30T18:35:24.00Z
308;Upton;Bonnor;2018-11-30T18:35:24.00Z;2018-11-30T18:35:24.00Z
309;Paulette;Kencott;2018-11-30T18:35:24.00Z;2018-11-30T18:35:24.00Z
310;Brendis;Matejka;2018-11-30T18:35:24.00Z;2018-11-30T18:35:24.00Z
311;Nicko;Gillmor;2018-11-30T18:35:24.00Z;2018-11-30T18:35:24.00Z
312;Karyn;Deveral;2018-11-30T18:35:24.00Z;2018-11-30T18:35:24.00Z
313;Joete;Burehill;2018-11-30T18:35:24.00Z;2018-11-30T18:35:24.00Z
314;Jehu;Tebbett;2018-11-30T18:35:24.00Z;2018-11-30T18:35:24.00Z
315;Jonie;Margerrison;2018-11-30T18:35:24.00Z;2018-11-30T18:35:24.00Z
316;Rosaline;Etty;2018-11-30T18:35:24.00Z;2018-11-30T18:35:24.00Z
317;Willie;Drew;2018-11-30T18:35:24.00Z;2018-11-30T18:35:24.00Z
318;Johannah;Behr;2018-11-30T18:35:24.00Z;2018-11-30T18:35:24.00Z
319;Hailee;Ary;2018-11-30T18:35:24.00Z;2018-11-30T18:35:24.00Z
320;Bartlet;Dunster;2018-11-30T18:35:24.00Z;2018-11-30T18:35:24.00Z
321;Heida;Van Hesteren;2018-11-30T18:35:24.00Z;2018-11-30T18:35:24.00Z
322;Roz;Bargh;2018-11-30T18:35:24.00Z;2018-11-30T18:35:24.00Z
323;Murial;Di Domenico;2018-11-30T18:35:24.00Z;2018-11-30T18:35:24.00Z
324;Ingmar;Callan;2018-11-30T18:35:24.00Z;2018-11-30T18:35:24.00Z
325;Marj;Minchindon;2018-11-30T18:35:24.00Z;2018-11-30T18:35:24.00Z
326;Kimbell;Orris;2018-11-30T18:35:24.00Z;2018-11-30T18:35:24.00Z
327;Holly-anne;Harbottle;2018-11-30T18:35:24.00Z;2018-11-30T18:35:24.00Z
328;Eve;Dewsnap;2018-11-30T18:35:24.00Z;2018-11-30T18:35:24.00Z
329;Amie;Brewis;2018-11-30T18:35:24.00Z;2018-11-30T18:35:24.00Z
330;Lula;Tierney;2018-11-30T18:35:24.00Z;2018-11-30T18:35:24.00Z
331;Damaris;Iddins;2018-11-30T18:35:24.00Z;2018-11-30T18:35:24.00Z
332;Kelwin;Locker;2018-11-30T18:35:24.00Z;2018-11-30T18:35:24.00Z
333;Kalil;Hagston;2018-11-30T18:35:24.00Z;2018-11-30T18:35:24.00Z
334;Rudyard;Klassman;2018-11-30T18:35:24.00Z;2018-11-30T18:35:24.00Z
335;Druci;Coslett;2018-11-30T18:35:24.00Z;2018-11-30T18:35:24.00Z
336;Veriee;Arger;2018-11-30T18:35:24.00Z;2018-11-30T18:35:24.00Z
337;Juline;Roth;2018-11-30T18:35:24.00Z;2018-11-30T18:35:24.00Z
338;Audrye;Tures;2018-11-30T18:35:24.00Z;2018-11-30T18:35:24.00Z
339;Christiane;Ebhardt;2018-11-30T18:35:24.00Z;2018-11-30T18:35:24.00Z
340;Jessie;Skitterel;2018-11-30T18:35:24.00Z;2018-11-30T18:35:24.00Z
341;Skell;Witheford;2018-11-30T18:35:24.00Z;2018-11-30T18:35:24.00Z
342;Mirelle;Albertson;2018-11-30T18:35:24.00Z;2018-11-30T18:35:24.00Z
343;Marcie;Haslin;2018-11-30T18:35:24.00Z;2018-11-30T18:35:24.00Z
344;Arlinda;Kinforth;2018-11-30T18:35:24.00Z;2018-11-30T18:35:24.00Z
345;Bertrand;MacCague;2018-11-30T18:35:24.00Z;2018-11-30T18:35:24.00Z
346;Jobye;Checchetelli;2018-11-30T18:35:24.00Z;2018-11-30T18:35:24.00Z
347;Ahmad;Tacker;2018-11-30T18:35:24.00Z;2018-11-30T18:35:24.00Z
348;Findlay;Tesyro;2018-11-30T18:35:24.00Z;2018-11-30T18:35:24.00Z
349;Leon;Fransson;2018-11-30T18:35:24.00Z;2018-11-30T18:35:24.00Z
350;Fabiano;Cordel;2018-11-30T18:35:24.00Z;2018-11-30T18:35:24.00Z
351;Syd;Skpsey;2018-11-30T18:35:24.00Z;2018-11-30T18:35:24.00Z
352;Orelia;Holtum;2018-11-30T18:35:24.00Z;2018-11-30T18:35:24.00Z
353;Carly;Bake;2018-11-30T18:35:24.00Z;2018-11-30T18:35:24.00Z
354;Hilary;Trendle;2018-11-30T18:35:24.00Z;2018-11-30T18:35:24.00Z
355;Monti;Llewellen;2018-11-30T18:35:24.00Z;2018-11-30T18:35:24.00Z
356;Wallie;O' Sullivan;2018-11-30T18:35:24.00Z;2018-11-30T18:35:24.00Z
357;Ivan;Edward;2018-11-30T18:35:24.00Z;2018-11-30T18:35:24.00Z
358;Brandy;Bolgar;2018-11-30T18:35:24.00Z;2018-11-30T18:35:24.00Z
359;Corly;Luna;2018-11-30T18:35:24.00Z;2018-11-30T18:35:24.00Z
360;Maribeth;Gellan;2018-11-30T18:35:24.00Z;2018-11-30T18:35:24.00Z
361;Darleen;Pablos;2018-11-30T18:35:24.00Z;2018-11-30T18:35:24.00Z
362;Justen;Arderne;2018-11-30T18:35:24.00Z;2018-11-30T18:35:24.00Z
363;Bil;Heams;2018-11-30T18:35:24.00Z;2018-11-30T18:35:24.00Z
364;Cory;Pullin;2018-11-30T18:35:24.00Z;2018-11-30T18:35:24.00Z
365;Hinda;Alder;2018-11-30T18:35:24.00Z;2018-11-30T18:35:24.00Z
366;Mirella;Roblin;2018-11-30T18:35:24.00Z;2018-11-30T18:35:24.00Z
367;Janette;Stoute;2018-11-30T18:35:24.00Z;2018-11-30T18:35:24.00Z
368;Loni;Bravington;2018-11-30T18:35:24.00Z;2018-11-30T18:35:24.00Z
369;Yvette;Darkin;2018-11-30T18:35:24.00Z;2018-11-30T18:35:24.00Z
370;Jarad;Roughey;2018-11-30T18:35:24.00Z;2018-11-30T18:35:24.00Z
371;Jayson;Anlay;2018-11-30T18:35:24.00Z;2018-11-30T18:35:24.00Z
372;Felisha;Van Oord;2018-11-30T18:35:24.00Z;2018-11-30T18:35:24.00Z
373;Lindon;Hawlgarth;2018-11-30T18:35:24.00Z;2018-11-30T18:35:24.00Z
374;Marysa;O'Spellissey;2018-11-30T18:35:24.00Z;2018-11-30T18:35:24.00Z
375;Brigitte;Cahani;2018-11-30T18:35:24.00Z;2018-11-30T18:35:24.00Z
376;Jacquelynn;Clemence;2018-11-30T18:35:24.00Z;2018-11-30T18:35:24.00Z
377;Shane;Anespie;2018-11-30T18:35:24.00Z;2018-11-30T18:35:24.00Z
378;Thoma;Osbaldeston;2018-11-30T18:35:24.00Z;2018-11-30T18:35:24.00Z
379;Alden;Yellop;2018-11-30T18:35:24.00Z;2018-11-30T18:35:24.00Z
380;Munmro;Decourt;2018-11-30T18:35:24.00Z;2018-11-30T18:35:24.00Z
381;Joice;Le-Good;2018-11-30T18:35:24.00Z;2018-11-30T18:35:24.00Z
382;Angeli;Rasher;2018-11-30T18:35:24.00Z;2018-11-30T18:35:24.00Z
383;Freida;Gilman;2018-11-30T18:35:24.00Z;2018-11-30T18:35:24.00Z
384;Aila;Copeland;2018-11-30T18:35:24.00Z;2018-11-30T18:35:24.00Z
385;Wendi;Waker;2018-11-30T18:35:24.00Z;2018-11-30T18:35:24.00Z
386;Karney;Hassell;2018-11-30T18:35:24.00Z;2018-11-30T18:35:24.00Z
387;Ruperta;Ranyard;2018-11-30T18:35:24.00Z;2018-11-30T18:35:24.00Z
388;Corrina;Norsworthy;2018-11-30T18:35:24.00Z;2018-11-30T18:35:24.00Z
389;Lorenza;Jinkinson;2018-11-30T18:35:24.00Z;2018-11-30T18:35:24.00Z
390;Dara;Ancell;2018-11-30T18:35:24.00Z;2018-11-30T18:35:24.00Z
391;Rebeka;Farreil;2018-11-30T18:35:24.00Z;2018-11-30T18:35:24.00Z
392;Wallie;Dailey;2018-11-30T18:35:24.00Z;2018-11-30T18:35:24.00Z
393;Johnnie;Byfford;2018-11-30T18:35:24.00Z;2018-11-30T18:35:24.00Z
394;Desmund;Anersen;2018-11-30T18:35:24.00Z;2018-11-30T18:35:24.00Z
395;Frannie;Whellams;2018-11-30T18:35:24.00Z;2018-11-30T18:35:24.00Z
396;Odille;Gallanders;2018-11-30T18:35:24.00Z;2018-11-30T18:35:24.00Z
397;Jamil;Duckering;2018-11-30T18:35:24.00Z;2018-11-30T18:35:24.00Z
398;Edwina;Rolfe;2018-11-30T18:35:24.00Z;2018-11-30T18:35:24.00Z
399;Finley;Lasty;2018-11-30T18:35:24.00Z;2018-11-30T18:35:24.00Z
400;Tanny;Comettoi;2018-11-30T18:35:24.00Z;2018-11-30T18:35:24.00Z
401;Susann;Culligan;2018-11-30T18:35:24.00Z;2018-11-30T18:35:24.00Z
402;Winna;Colrein;2018-11-30T18:35:24.00Z;2018-11-30T18:35:24.00Z
403;Glenn;Layton;2018-11-30T18:35:24.00Z;2018-11-30T18:35:24.00Z
404;Aimee;Colenutt;2018-11-30T18:35:24.00Z;2018-11-30T18:35:24.00Z
405;Link;Derington;2018-11-30T18:35:24.00Z;2018-11-30T18:35:24.00Z
406;Gare;Chilvers;2018-11-30T18:35:24.00Z;2018-11-30T18:35:24.00Z
407;Caroline;Keep;2018-11-30T18:35:24.00Z;2018-11-30T18:35:24.00Z
408;Rockey;Bancroft;2018-11-30T18:35:24.00Z;2018-11-30T18:35:24.00Z
409;Francine;Longson;2018-11-30T18:35:24.00Z;2018-11-30T18:35:24.00Z
410;Nicolea;Hencke;2018-11-30T18:35:24.00Z;2018-11-30T18:35:24.00Z
411;Jayne;Halston;2018-11-30T18:35:24.00Z;2018-11-30T18:35:24.00Z
412;Milton;Kemetz;2018-11-30T18:35:24.00Z;2018-11-30T18:35:24.00Z
413;Em;Deas;2018-11-30T18:35:24.00Z;2018-11-30T18:35:24.00Z
414;Agatha;Jozefiak;2018-11-30T18:35:24.00Z;2018-11-30T18:35:24.00Z
415;Gretna;Gowen;2018-11-30T18:35:24.00Z;2018-11-30T18:35:24.00Z
416;Valenka;Lathwood;2018-11-30T18:35:24.00Z;2018-11-30T18:35:24.00Z
417;Matthiew;Miall;2018-11-30T18:35:24.00Z;2018-11-30T18:35:24.00Z
418;Erminie;Schultz;2018-11-30T18:35:24.00Z;2018-11-30T18:35:24.00Z
419;Marissa;Buse;2018-11-30T18:35:24.00Z;2018-11-30T18:35:24.00Z
420;Iorgos;Morin;2018-11-30T18:35:24.00Z;2018-11-30T18:35:24.00Z
421;Emelia;Betham;2018-11-30T18:35:24.00Z;2018-11-30T18:35:24.00Z
422;Kacey;Axten;2018-11-30T18:35:24.00Z;2018-11-30T18:35:24.00Z
423;Kally;Vanyushin;2018-11-30T18:35:24.00Z;2018-11-30T18:35:24.00Z
424;Margie;Ramsbotham;2018-11-30T18:35:24.00Z;2018-11-30T18:35:24.00Z
425;Desmond;Bothbie;2018-11-30T18:35:24.00Z;2018-11-30T18:35:24.00Z
426;Adora;Ludlem;2018-11-30T18:35:24.00Z;2018-11-30T18:35:24.00Z
427;Sigfried;Schiesterl;2018-11-30T18:35:24.00Z;2018-11-30T18:35:24.00Z
428;Damita;Cuthill;2018-11-30T18:35:24.00Z;2018-11-30T18:35:24.00Z
429;Cacilie;Kubiczek;2018-11-30T18:35:24.00Z;2018-11-30T18:35:24.00Z
430;Madlen;Bodega;2018-11-30T18:35:24.00Z;2018-11-30T18:35:24.00Z
431;Hatty;Ludford;2018-11-30T18:35:24.00Z;2018-11-30T18:35:24.00Z
432;Conway;MacGorman;2018-11-30T18:35:24.00Z;2018-11-30T18:35:24.00Z
433;Alphard;Hendrick;2018-11-30T18:35:24.00Z;2018-11-30T18:35:24.00Z
434;Susann;Waslin;2018-11-30T18:35:24.00Z;2018-11-30T18:35:24.00Z
435;Dacey;Predohl;2018-11-30T18:35:24.00Z;2018-11-30T18:35:24.00Z
436;Alyda;Rowlinson;2018-11-30T18:35:24.00Z;2018-11-30T18:35:24.00Z
437;Rosaleen;Binfield;2018-11-30T18:35:24.00Z;2018-11-30T18:35:24.00Z
438;Adele;Kilbane;2018-11-30T18:35:24.00Z;2018-11-30T18:35:24.00Z
439;Kev;Minton;2018-11-30T18:35:24.00Z;2018-11-30T18:35:24.00Z
440;Marco;Bewsy;2018-11-30T18:35:24.00Z;2018-11-30T18:35:24.00Z
441;Knox;Clemitt;2018-11-30T18:35:24.00Z;2018-11-30T18:35:24.00Z
442;Edwin;Duncanson;2018-11-30T18:35:24.00Z;2018-11-30T18:35:24.00Z
443;Dru;Karlik;2018-11-30T18:35:24.00Z;2018-11-30T18:35:24.00Z
444;Sam;McIlreavy;2018-11-30T18:35:24.00Z;2018-11-30T18:35:24.00Z
445;Rosamond;MacCarter;2018-11-30T18:35:24.00Z;2018-11-30T18:35:24.00Z
446;Debra;Pinck;2018-11-30T18:35:24.00Z;2018-11-30T18:35:24.00Z
447;Nissie;Elliot;2018-11-30T18:35:24.00Z;2018-11-30T18:35:24.00Z
448;Danice;Samsonsen;2018-11-30T18:35:24.00Z;2018-11-30T18:35:24.00Z
449;Robin;Staig;2018-11-30T18:35:24.00Z;2018-11-30T18:35:24.00Z
450;Cristen;Dansken;2018-11-30T18:35:24.00Z;2018-11-30T18:35:24.00Z
451;Annmaria;Enstone;2018-11-30T18:35:24.00Z;2018-11-30T18:35:24.00Z
452;Kristina;Corrao;2018-11-30T18:35:24.00Z;2018-11-30T18:35:24.00Z
453;Doreen;Jacketts;2018-11-30T18:35:24.00Z;2018-11-30T18:35:24.00Z
454;Ingram;Swaine;2018-11-30T18:35:24.00Z;2018-11-30T18:35:24.00Z
455;Jarret;Ayres;2018-11-30T18:35:24.00Z;2018-11-30T18:35:24.00Z
456;Garwood;Hayter;2018-11-30T18:35:24.00Z;2018-11-30T18:35:24.00Z
457;Ramsey;Gemeau;2018-11-30T18:35:24.00Z;2018-11-30T18:35:24.00Z
458;Jedidiah;Kemet;2018-11-30T18:35:24.00Z;2018-11-30T18:35:24.00Z
459;Hersch;Eastway;2018-11-30T18:35:24.00Z;2018-11-30T18:35:24.00Z
460;Jan;Gallamore;2018-11-30T18:35:24.00Z;2018-11-30T18:35:24.00Z
461;Moreen;Beer;2018-11-30T18:35:24.00Z;2018-11-30T18:35:24.00Z
462;Stefania;Stanbury;2018-11-30T18:35:24.00Z;2018-11-30T18:35:24.00Z
463;Dan;Haverson;2018-11-30T18:35:24.00Z;2018-11-30T18:35:24.00Z
464;Starla;Farady;2018-11-30T18:35:24.00Z;2018-11-30T18:35:24.00Z
465;Jason;Cordingley;2018-11-30T18:35:24.00Z;2018-11-30T18:35:24.00Z
466;Caspar;Holgan;2018-11-30T18:35:24.00Z;2018-11-30T18:35:24.00Z
467;Tomas;Cadwallader;2018-11-30T18:35:24.00Z;2018-11-30T18:35:24.00Z
468;Alameda;Fishwick;2018-11-30T18:35:24.00Z;2018-11-30T18:35:24.00Z
469;Glyn;Haggard;2018-11-30T18:35:24.00Z;2018-11-30T18:35:24.00Z
470;Urban;Clarke;2018-11-30T18:35:24.00Z;2018-11-30T18:35:24.00Z
471;Isidoro;Murty;2018-11-30T18:35:24.00Z;2018-11-30T18:35:24.00Z
472;Aldin;Earley;2018-11-30T18:35:24.00Z;2018-11-30T18:35:24.00Z
473;Rachelle;Bamling;2018-11-30T18:35:24.00Z;2018-11-30T18:35:24.00Z
474;Nessi;Conniam;2018-11-30T18:35:24.00Z;2018-11-30T18:35:24.00Z
475;Vilhelmina;Greggs;2018-11-30T18:35:24.00Z;2018-11-30T18:35:24.00Z
476;Karoly;Momery;2018-11-30T18:35:24.00Z;2018-11-30T18:35:24.00Z
477;Ozzie;Cavet;2018-11-30T18:35:24.00Z;2018-11-30T18:35:24.00Z
478;Townie;Baudi;2018-11-30T18:35:24.00Z;2018-11-30T18:35:24.00Z
479;Loralie;Duiged;2018-11-30T18:35:24.00Z;2018-11-30T18:35:24.00Z
480;Jarad;Coleford;2018-11-30T18:35:24.00Z;2018-11-30T18:35:24.00Z
481;Dotty;Dinkin;2018-11-30T18:35:24.00Z;2018-11-30T18:35:24.00Z
482;Corry;Routledge;2018-11-30T18:35:24.00Z;2018-11-30T18:35:24.00Z
483;Mill;Norree;2018-11-30T18:35:24.00Z;2018-11-30T18:35:24.00Z
484;Harland;Simko;2018-11-30T18:35:24.00Z;2018-11-30T18:35:24.00Z
485;Valentin;Stigell;2018-11-30T18:35:24.00Z;2018-11-30T18:35:24.00Z
486;Dee;Feighry;2018-11-30T18:35:24.00Z;2018-11-30T18:35:24.00Z
487;Orlan;Allain;2018-11-30T18:35:24.00Z;2018-11-30T18:35:24.00Z
488;Leonelle;Jurgenson;2018-11-30T18:35:24.00Z;2018-11-30T18:35:24.00Z
489;Karoline;Penna;2018-11-30T18:35:24.00Z;2018-11-30T18:35:24.00Z
490;Zared;Hackwell;2018-11-30T18:35:24.00Z;2018-11-30T18:35:24.00Z
491;Deerdre;Bentick;2018-11-30T18:35:24.00Z;2018-11-30T18:35:24.00Z
492;Nancy;Crisp;2018-11-30T18:35:24.00Z;2018-11-30T18:35:24.00Z
493;Adore;Prozescky;2018-11-30T18:35:24.00Z;2018-11-30T18:35:24.00Z
494;Dylan;Beakes;2018-11-30T18:35:24.00Z;2018-11-30T18:35:24.00Z
495;Anallise;Tapson;2018-11-30T18:35:24.00Z;2018-11-30T18:35:24.00Z
496;Mitch;Wesgate;2018-11-30T18:35:24.00Z;2018-11-30T18:35:24.00Z
497;Manuel;Nutbeam;2018-11-30T18:35:24.00Z;2018-11-30T18:35:24.00Z
498;Kizzee;Croisier;2018-11-30T18:35:24.00Z;2018-11-30T18:35:24.00Z
499;Alta;Cossum;2018-11-30T18:35:24.00Z;2018-11-30T18:35:24.00Z
500;Abigael;Canham;2018-11-30T18:35:24.00Z;2018-11-30T18:35:24.00Z
501;Christian;Folcarelli;2018-11-30T18:35:24.00Z;2018-11-30T18:35:24.00Z
502;Desirae;Humfrey;2018-11-30T18:35:24.00Z;2018-11-30T18:35:24.00Z
503;Geraldine;Grevel;2018-11-30T18:35:24.00Z;2018-11-30T18:35:24.00Z
504;Demetris;Terbruggen;2018-11-30T18:35:24.00Z;2018-11-30T18:35:24.00Z
505;Randolph;Bamlet;2018-11-30T18:35:24.00Z;2018-11-30T18:35:24.00Z
506;Cinda;Philippsohn;2018-11-30T18:35:24.00Z;2018-11-30T18:35:24.00Z
507;Willy;Jerrems;2018-11-30T18:35:24.00Z;2018-11-30T18:35:24.00Z
508;Corinna;Pauel;2018-11-30T18:35:24.00Z;2018-11-30T18:35:24.00Z
509;Aridatha;Readshaw;2018-11-30T18:35:24.00Z;2018-11-30T18:35:24.00Z
510;Othello;Gallamore;2018-11-30T18:35:24.00Z;2018-11-30T18:35:24.00Z
511;Glendon;Folca;2018-11-30T18:35:24.00Z;2018-11-30T18:35:24.00Z
512;Aldric;Vonderdell;2018-11-30T18:35:24.00Z;2018-11-30T18:35:24.00Z
513;Tait;Forton;2018-11-30T18:35:24.00Z;2018-11-30T18:35:24.00Z
514;Ayn;Epinoy;2018-11-30T18:35:24.00Z;2018-11-30T18:35:24.00Z
515;Read;Hirthe;2018-11-30T18:35:24.00Z;2018-11-30T18:35:24.00Z
516;Elmo;Gate;2018-11-30T18:35:24.00Z;2018-11-30T18:35:24.00Z
517;Timmi;Lehmann;2018-11-30T18:35:24.00Z;2018-11-30T18:35:24.00Z
518;Felicia;Carloni;2018-11-30T18:35:24.00Z;2018-11-30T18:35:24.00Z
519;Jedd;Menault;2018-11-30T18:35:24.00Z;2018-11-30T18:35:24.00Z
520;Fancie;Deniscke;2018-11-30T18:35:24.00Z;2018-11-30T18:35:24.00Z
521;Chantal;Fermoy;2018-11-30T18:35:24.00Z;2018-11-30T18:35:24.00Z
522;Ingra;Johnson;2018-11-30T18:35:24.00Z;2018-11-30T18:35:24.00Z
523;Emmalyn;Stiff;2018-11-30T18:35:24.00Z;2018-11-30T18:35:24.00Z
524;Katerine;Ashpital;2018-11-30T18:35:24.00Z;2018-11-30T18:35:24.00Z
525;Waylan;McInility;2018-11-30T18:35:24.00Z;2018-11-30T18:35:24.00Z
526;Josie;Copp;2018-11-30T18:35:24.00Z;2018-11-30T18:35:24.00Z
527;Aleece;Hinze;2018-11-30T18:35:24.00Z;2018-11-30T18:35:24.00Z
528;Merrily;Delahunt;2018-11-30T18:35:24.00Z;2018-11-30T18:35:24.00Z
529;Abe;Gaitley;2018-11-30T18:35:24.00Z;2018-11-30T18:35:24.00Z
530;Adella;Fydo;2018-11-30T18:35:24.00Z;2018-11-30T18:35:24.00Z
531;Nil;Tesauro;2018-11-30T18:35:24.00Z;2018-11-30T18:35:24.00Z
532;Inga;Diboll;2018-11-30T18:35:24.00Z;2018-11-30T18:35:24.00Z
533;Elayne;Tellesson;2018-11-30T18:35:24.00Z;2018-11-30T18:35:24.00Z
534;Gilly;Pennicard;2018-11-30T18:35:24.00Z;2018-11-30T18:35:24.00Z
535;Sheena;Janjic;2018-11-30T18:35:24.00Z;2018-11-30T18:35:24.00Z
536;Karin;Trineman;2018-11-30T18:35:24.00Z;2018-11-30T18:35:24.00Z
537;Candi;Allwood;2018-11-30T18:35:24.00Z;2018-11-30T18:35:24.00Z
538;Prent;Mabbitt;2018-11-30T18:35:24.00Z;2018-11-30T18:35:24.00Z
539;Ben;McShirie;2018-11-30T18:35:24.00Z;2018-11-30T18:35:24.00Z
540;Caralie;Rigard;2018-11-30T18:35:24.00Z;2018-11-30T18:35:24.00Z
541;Worth;Yuranovev;2018-11-30T18:35:24.00Z;2018-11-30T18:35:24.00Z
542;Saw;Burel;2018-11-30T18:35:24.00Z;2018-11-30T18:35:24.00Z
543;Kerstin;Weal;2018-11-30T18:35:24.00Z;2018-11-30T18:35:24.00Z
544;Isidore;Mingey;2018-11-30T18:35:24.00Z;2018-11-30T18:35:24.00Z
545;Valentine;Cassel;2018-11-30T18:35:24.00Z;2018-11-30T18:35:24.00Z
546;Shelba;Brambell;2018-11-30T18:35:24.00Z;2018-11-30T18:35:24.00Z
547;Ches;Antoniades;2018-11-30T18:35:24.00Z;2018-11-30T18:35:24.00Z
548;Patricio;Giorgietto;2018-11-30T18:35:24.00Z;2018-11-30T18:35:24.00Z
549;Celestyn;Loadsman;2018-11-30T18:35:24.00Z;2018-11-30T18:35:24.00Z
550;Rochella;Colbertson;2018-11-30T18:35:24.00Z;2018-11-30T18:35:24.00Z
551;Lenna;Cordero;2018-11-30T18:35:24.00Z;2018-11-30T18:35:24.00Z
552;Gary;Hart;2018-11-30T18:35:24.00Z;2018-11-30T18:35:24.00Z
553;Jerrilyn;Bourdis;2018-11-30T18:35:24.00Z;2018-11-30T18:35:24.00Z
554;Smitty;Fellow;2018-11-30T18:35:24.00Z;2018-11-30T18:35:24.00Z
555;Pollyanna;Assel;2018-11-30T18:35:24.00Z;2018-11-30T18:35:24.00Z
556;Bealle;Albury;2018-11-30T18:35:24.00Z;2018-11-30T18:35:24.00Z
557;Renault;Yourell;2018-11-30T18:35:24.00Z;2018-11-30T18:35:24.00Z
558;Dalila;Millwater;2018-11-30T18:35:24.00Z;2018-11-30T18:35:24.00Z
559;Milt;Borgne;2018-11-30T18:35:24.00Z;2018-11-30T18:35:24.00Z
560;Lavena;Tarbert;2018-11-30T18:35:24.00Z;2018-11-30T18:35:24.00Z
561;Peder;Sterricker;2018-11-30T18:35:24.00Z;2018-11-30T18:35:24.00Z
562;Efren;Isbell;2018-11-30T18:35:24.00Z;2018-11-30T18:35:24.00Z
563;Morten;Dary;2018-11-30T18:35:24.00Z;2018-11-30T18:35:24.00Z
564;Ezra;McLinden;2018-11-30T18:35:24.00Z;2018-11-30T18:35:24.00Z
565;Rafa;Ellif;2018-11-30T18:35:24.00Z;2018-11-30T18:35:24.00Z
566;Toby;Crockford;2018-11-30T18:35:24.00Z;2018-11-30T18:35:24.00Z
567;Marylou;Budnik;2018-11-30T18:35:24.00Z;2018-11-30T18:35:24.00Z
568;Amandie;Freeborne;2018-11-30T18:35:24.00Z;2018-11-30T18:35:24.00Z
569;Melicent;Marsy;2018-11-30T18:35:24.00Z;2018-11-30T18:35:24.00Z
570;Marnia;Jiruch;2018-11-30T18:35:24.00Z;2018-11-30T18:35:24.00Z
571;Gwendolin;Megson;2018-11-30T18:35:24.00Z;2018-11-30T18:35:24.00Z
572;Eleanora;Bohl;2018-11-30T18:35:24.00Z;2018-11-30T18:35:24.00Z
573;Angelo;Hurleston;2018-11-30T18:35:24.00Z;2018-11-30T18:35:24.00Z
574;Dix;Reasce;2018-11-30T18:35:24.00Z;2018-11-30T18:35:24.00Z
575;Randall;Oxbie;2018-11-30T18:35:24.00Z;2018-11-30T18:35:24.00Z
576;Loree;Luddy;2018-11-30T18:35:24.00Z;2018-11-30T18:35:24.00Z
577;Kore;Armytage;2018-11-30T18:35:24.00Z;2018-11-30T18:35:24.00Z
578;Gordie;Dunnan;2018-11-30T18:35:24.00Z;2018-11-30T18:35:24.00Z
579;Tansy;Presman;2018-11-30T18:35:24.00Z;2018-11-30T18:35:24.00Z
580;Katherina;Crocket;2018-11-30T18:35:24.00Z;2018-11-30T18:35:24.00Z
581;Huey;Bothen;2018-11-30T18:35:24.00Z;2018-11-30T18:35:24.00Z
582;Susanetta;Vertey;2018-11-30T18:35:24.00Z;2018-11-30T18:35:24.00Z
583;Brendis;Wonfor;2018-11-30T18:35:24.00Z;2018-11-30T18:35:24.00Z
584;Celle;Mapis;2018-11-30T18:35:24.00Z;2018-11-30T18:35:24.00Z
585;Noland;Rousby;2018-11-30T18:35:24.00Z;2018-11-30T18:35:24.00Z
586;Cindee;Valentine;2018-11-30T18:35:24.00Z;2018-11-30T18:35:24.00Z
587;Nev;Grattage;2018-11-30T18:35:24.00Z;2018-11-30T18:35:24.00Z
588;Ban;Riditch;2018-11-30T18:35:24.00Z;2018-11-30T18:35:24.00Z
589;Swen;Jenks;2018-11-30T18:35:24.00Z;2018-11-30T18:35:24.00Z
590;Idaline;Albro;2018-11-30T18:35:24.00Z;2018-11-30T18:35:24.00Z
591;Harold;Koppelmann;2018-11-30T18:35:24.00Z;2018-11-30T18:35:24.00Z
592;Dasha;McIlvenny;2018-11-30T18:35:24.00Z;2018-11-30T18:35:24.00Z
593;Ulises;Cunrado;2018-11-30T18:35:24.00Z;2018-11-30T18:35:24.00Z
594;Korey;Domelaw;2018-11-30T18:35:24.00Z;2018-11-30T18:35:24.00Z
595;Freemon;Graeser;2018-11-30T18:35:24.00Z;2018-11-30T18:35:24.00Z
596;Gabie;Dumini;2018-11-30T18:35:24.00Z;2018-11-30T18:35:24.00Z
597;Ronna;Wahlberg;2018-11-30T18:35:24.00Z;2018-11-30T18:35:24.00Z
598;Torr;Dainter;2018-11-30T18:35:24.00Z;2018-11-30T18:35:24.00Z
599;Kev;Dowsing;2018-11-30T18:35:24.00Z;2018-11-30T18:35:24.00Z
600;Isa;Ebden;2018-11-30T18:35:24.00Z;2018-11-30T18:35:24.00Z
601;Chris;Masser;2018-11-30T18:35:24.00Z;2018-11-30T18:35:24.00Z
602;Sheppard;Teall;2018-11-30T18:35:24.00Z;2018-11-30T18:35:24.00Z
603;Umberto;Feacham;2018-11-30T18:35:24.00Z;2018-11-30T18:35:24.00Z
604;Patti;Poad;2018-11-30T18:35:24.00Z;2018-11-30T18:35:24.00Z
605;Libbi;Langcastle;2018-11-30T18:35:24.00Z;2018-11-30T18:35:24.00Z
606;Freddy;Renouf;2018-11-30T18:35:24.00Z;2018-11-30T18:35:24.00Z
607;Tommy;Kenner;2018-11-30T18:35:24.00Z;2018-11-30T18:35:24.00Z
608;Evangelia;Irce;2018-11-30T18:35:24.00Z;2018-11-30T18:35:24.00Z
609;Jakob;De La Salle;2018-11-30T18:35:24.00Z;2018-11-30T18:35:24.00Z
610;Gloriane;Wones;2018-11-30T18:35:24.00Z;2018-11-30T18:35:24.00Z
611;Tobye;Brombell;2018-11-30T18:35:24.00Z;2018-11-30T18:35:24.00Z
612;Babita;Hellings;2018-11-30T18:35:24.00Z;2018-11-30T18:35:24.00Z
613;Derk;Guiden;2018-11-30T18:35:24.00Z;2018-11-30T18:35:24.00Z
614;Mildred;Hrus;2018-11-30T18:35:24.00Z;2018-11-30T18:35:24.00Z
615;Moss;Saddington;2018-11-30T18:35:24.00Z;2018-11-30T18:35:24.00Z
616;Kelly;Callander;2018-11-30T18:35:24.00Z;2018-11-30T18:35:24.00Z
617;Elfrieda;Daniello;2018-11-30T18:35:24.00Z;2018-11-30T18:35:24.00Z
618;Cicily;Gipps;2018-11-30T18:35:24.00Z;2018-11-30T18:35:24.00Z
619;Veronike;D'eath;2018-11-30T18:35:24.00Z;2018-11-30T18:35:24.00Z
620;Lavinia;Impson;2018-11-30T18:35:24.00Z;2018-11-30T18:35:24.00Z
621;Etan;Blackall;2018-11-30T18:35:24.00Z;2018-11-30T18:35:24.00Z
622;Bernardo;Catterill;2018-11-30T18:35:24.00Z;2018-11-30T18:35:24.00Z
623;Elwira;Whitfeld;2018-11-30T18:35:24.00Z;2018-11-30T18:35:24.00Z
624;Renee;Westwood;2018-11-30T18:35:24.00Z;2018-11-30T18:35:24.00Z
625;Gaye;Graith;2018-11-30T18:35:24.00Z;2018-11-30T18:35:24.00Z
626;Elisabeth;Jeanel;2018-11-30T18:35:24.00Z;2018-11-30T18:35:24.00Z
627;Sybille;Champain;2018-11-30T18:35:24.00Z;2018-11-30T18:35:24.00Z
628;Dorthea;Barten;2018-11-30T18:35:24.00Z;2018-11-30T18:35:24.00Z
629;Holly;Gent;2018-11-30T18:35:24.00Z;2018-11-30T18:35:24.00Z
630;Harrie;Hatfield;2018-11-30T18:35:24.00Z;2018-11-30T18:35:24.00Z
631;Irwinn;Pagin;2018-11-30T18:35:24.00Z;2018-11-30T18:35:24.00Z
632;Gertrude;Corsham;2018-11-30T18:35:24.00Z;2018-11-30T18:35:24.00Z
633;Mirna;Bancroft;2018-11-30T18:35:24.00Z;2018-11-30T18:35:24.00Z
634;Bonita;Viscovi;2018-11-30T18:35:24.00Z;2018-11-30T18:35:24.00Z
635;Isac;Pydcock;2018-11-30T18:35:24.00Z;2018-11-30T18:35:24.00Z
636;Milka;Alsop;2018-11-30T18:35:24.00Z;2018-11-30T18:35:24.00Z
637;Blakelee;Boyda;2018-11-30T18:35:24.00Z;2018-11-30T18:35:24.00Z
638;Rayna;Hincks;2018-11-30T18:35:24.00Z;2018-11-30T18:35:24.00Z
639;Robena;Benian;2018-11-30T18:35:24.00Z;2018-11-30T18:35:24.00Z
640;Roselle;Gristhwaite;2018-11-30T18:35:24.00Z;2018-11-30T18:35:24.00Z
641;Claudette;Wadworth;2018-11-30T18:35:24.00Z;2018-11-30T18:35:24.00Z
642;Del;Matthisson;2018-11-30T18:35:24.00Z;2018-11-30T18:35:24.00Z
643;Ardyce;Trayte;2018-11-30T18:35:24.00Z;2018-11-30T18:35:24.00Z
644;Cooper;Cary;2018-11-30T18:35:24.00Z;2018-11-30T18:35:24.00Z
645;Meg;Kobpa;2018-11-30T18:35:24.00Z;2018-11-30T18:35:24.00Z
646;Cyril;Sola;2018-11-30T18:35:24.00Z;2018-11-30T18:35:24.00Z
647;Lindsay;Peatt;2018-11-30T18:35:24.00Z;2018-11-30T18:35:24.00Z
648;Anjanette;Hender;2018-11-30T18:35:24.00Z;2018-11-30T18:35:24.00Z
649;Catherina;Oury;2018-11-30T18:35:24.00Z;2018-11-30T18:35:24.00Z
650;Gail;Hickeringill;2018-11-30T18:35:24.00Z;2018-11-30T18:35:24.00Z
651;Pembroke;Ossulton;2018-11-30T18:35:24.00Z;2018-11-30T18:35:24.00Z
652;Harlin;Rodriguez;2018-11-30T18:35:24.00Z;2018-11-30T18:35:24.00Z
653;Noemi;Schneidau;2018-11-30T18:35:24.00Z;2018-11-30T18:35:24.00Z
654;Janetta;Ferrar;2018-11-30T18:35:24.00Z;2018-11-30T18:35:24.00Z
655;Nerty;Woodman;2018-11-30T18:35:24.00Z;2018-11-30T18:35:24.00Z
656;Harald;Louth;2018-11-30T18:35:24.00Z;2018-11-30T18:35:24.00Z
657;Sigismond;Crohan;2018-11-30T18:35:24.00Z;2018-11-30T18:35:24.00Z
658;Chryste;Demke;2018-11-30T18:35:24.00Z;2018-11-30T18:35:24.00Z
659;Shaine;Wintringham;2018-11-30T18:35:24.00Z;2018-11-30T18:35:24.00Z
660;Rochelle;Garratt;2018-11-30T18:35:24.00Z;2018-11-30T18:35:24.00Z
661;Matthiew;Ohrtmann;2018-11-30T18:35:24.00Z;2018-11-30T18:35:24.00Z
662;Elana;Benitez;2018-11-30T18:35:24.00Z;2018-11-30T18:35:24.00Z
663;Jermain;Arnould;2018-11-30T18:35:24.00Z;2018-11-30T18:35:24.00Z
664;Sampson;Potbury;2018-11-30T18:35:24.00Z;2018-11-30T18:35:24.00Z
665;Linell;Wallenger;2018-11-30T18:35:24.00Z;2018-11-30T18:35:24.00Z
666;Lon;Purves;2018-11-30T18:35:24.00Z;2018-11-30T18:35:24.00Z
667;Lefty;Borrow;2018-11-30T18:35:24.00Z;2018-11-30T18:35:24.00Z
668;Trefor;Stanner;2018-11-30T18:35:24.00Z;2018-11-30T18:35:24.00Z
669;Jean;Longhorne;2018-11-30T18:35:24.00Z;2018-11-30T18:35:24.00Z
670;Erinn;Arrighi;2018-11-30T18:35:24.00Z;2018-11-30T18:35:24.00Z
671;Nicholas;Haburne;2018-11-30T18:35:24.00Z;2018-11-30T18:35:24.00Z
672;Leann;Nutman;2018-11-30T18:35:24.00Z;2018-11-30T18:35:24.00Z
673;Delores;Maass;2018-11-30T18:35:24.00Z;2018-11-30T18:35:24.00Z
674;Wainwright;Lampard;2018-11-30T18:35:24.00Z;2018-11-30T18:35:24.00Z
675;Jaynell;Culpen;2018-11-30T18:35:24.00Z;2018-11-30T18:35:24.00Z
676;Charmane;Darragon;2018-11-30T18:35:24.00Z;2018-11-30T18:35:24.00Z
677;Egbert;O'Tierney;2018-11-30T18:35:24.00Z;2018-11-30T18:35:24.00Z
678;Doria;Gardener;2018-11-30T18:35:24.00Z;2018-11-30T18:35:24.00Z
679;Wrennie;Scott;2018-11-30T18:35:24.00Z;2018-11-30T18:35:24.00Z
680;Robbyn;Sara;2018-11-30T18:35:24.00Z;2018-11-30T18:35:24.00Z
681;Yoko;Dablin;2018-11-30T18:35:24.00Z;2018-11-30T18:35:24.00Z
682;Annette;Lerner;2018-11-30T18:35:24.00Z;2018-11-30T18:35:24.00Z
683;Gradeigh;Dearle;2018-11-30T18:35:24.00Z;2018-11-30T18:35:24.00Z
684;Cathlene;Cornelisse;2018-11-30T18:35:24.00Z;2018-11-30T18:35:24.00Z
685;Raymond;Mill;2018-11-30T18:35:24.00Z;2018-11-30T18:35:24.00Z
686;Gayle;Cofax;2018-11-30T18:35:24.00Z;2018-11-30T18:35:24.00Z
687;Merell;Seddon;2018-11-30T18:35:24.00Z;2018-11-30T18:35:24.00Z
688;Pacorro;Rean;2018-11-30T18:35:24.00Z;2018-11-30T18:35:24.00Z
689;Christye;McNeely;2018-11-30T18:35:24.00Z;2018-11-30T18:35:24.00Z
690;Dannel;Shipman;2018-11-30T18:35:24.00Z;2018-11-30T18:35:24.00Z
691;Miller;Dahlbom;2018-11-30T18:35:24.00Z;2018-11-30T18:35:24.00Z
692;Kennedy;Pellingar;2018-11-30T18:35:24.00Z;2018-11-30T18:35:24.00Z
693;Hernando;Bril;2018-11-30T18:35:24.00Z;2018-11-30T18:35:24.00Z
694;Warde;Buttner;2018-11-30T18:35:24.00Z;2018-11-30T18:35:24.00Z
695;Guendolen;McGaffey;2018-11-30T18:35:24.00Z;2018-11-30T18:35:24.00Z
696;Syman;Millan;2018-11-30T18:35:24.00Z;2018-11-30T18:35:24.00Z
697;Elna;Vardey;2018-11-30T18:35:24.00Z;2018-11-30T18:35:24.00Z
698;Timothea;Baudinot;2018-11-30T18:35:24.00Z;2018-11-30T18:35:24.00Z
699;Annice;Parris;2018-11-30T18:35:24.00Z;2018-11-30T18:35:24.00Z
700;Isacco;Rispen;2018-11-30T18:35:24.00Z;2018-11-30T18:35:24.00Z
701;Wat;Backshill;2018-11-30T18:35:24.00Z;2018-11-30T18:35:24.00Z
702;Kris;Tackes;2018-11-30T18:35:24.00Z;2018-11-30T18:35:24.00Z
703;Marni;Durkin;2018-11-30T18:35:24.00Z;2018-11-30T18:35:24.00Z
704;Yolanda;Dennistoun;2018-11-30T18:35:24.00Z;2018-11-30T18:35:24.00Z
705;Nelia;Norcliffe;2018-11-30T18:35:24.00Z;2018-11-30T18:35:24.00Z
706;Zebadiah;Woollacott;2018-11-30T18:35:24.00Z;2018-11-30T18:35:24.00Z
707;D'arcy;McKeady;2018-11-30T18:35:24.00Z;2018-11-30T18:35:24.00Z
708;Marthena;Briggdale;2018-11-30T18:35:24.00Z;2018-11-30T18:35:24.00Z
709;Francis;Livard;2018-11-30T18:35:24.00Z;2018-11-30T18:35:24.00Z
710;Umeko;Quarrie;2018-11-30T18:35:24.00Z;2018-11-30T18:35:24.00Z
711;Sunny;Cressy;2018-11-30T18:35:24.00Z;2018-11-30T18:35:24.00Z
712;Belicia;Potkins;2018-11-30T18:35:24.00Z;2018-11-30T18:35:24.00Z
713;Ginni;MacKim;2018-11-30T18:35:24.00Z;2018-11-30T18:35:24.00Z
714;Barbi;Howsam;2018-11-30T18:35:24.00Z;2018-11-30T18:35:24.00Z
715;Damien;Clampton;2018-11-30T18:35:24.00Z;2018-11-30T18:35:24.00Z
716;Fawn;Hulke;2018-11-30T18:35:24.00Z;2018-11-30T18:35:24.00Z
717;Nelly;Hoff;2018-11-30T18:35:24.00Z;2018-11-30T18:35:24.00Z
718;Jarad;Sturney;2018-11-30T18:35:24.00Z;2018-11-30T18:35:24.00Z
719;Dorris;Kilvington;2018-11-30T18:35:24.00Z;2018-11-30T18:35:24.00Z
720;Amara;Cowell;2018-11-30T18:35:24.00Z;2018-11-30T18:35:24.00Z
721;Ranique;Eager;2018-11-30T18:35:24.00Z;2018-11-30T18:35:24.00Z
722;Charita;Schulter;2018-11-30T18:35:24.00Z;2018-11-30T18:35:24.00Z
723;Ali;Losebie;2018-11-30T18:35:24.00Z;2018-11-30T18:35:24.00Z
724;Nicolis;Joye;2018-11-30T18:35:24.00Z;2018-11-30T18:35:24.00Z
725;Graeme;Pettyfar;2018-11-30T18:35:24.00Z;2018-11-30T18:35:24.00Z
726;Anjela;McNellis;2018-11-30T18:35:24.00Z;2018-11-30T18:35:24.00Z
727;Lauretta;Bunclark;2018-11-30T18:35:24.00Z;2018-11-30T18:35:24.00Z
728;Kenn;Shaxby;2018-11-30T18:35:24.00Z;2018-11-30T18:35:24.00Z
729;Delmer;Marriott;2018-11-30T18:35:24.00Z;2018-11-30T18:35:24.00Z
730;Godard;Davidoff;2018-11-30T18:35:24.00Z;2018-11-30T18:35:24.00Z
731;Haskell;Kobes;2018-11-30T18:35:24.00Z;2018-11-30T18:35:24.00Z
732;Payton;Pleat;2018-11-30T18:35:24.00Z;2018-11-30T18:35:24.00Z
733;Loralie;Witcherley;2018-11-30T18:35:24.00Z;2018-11-30T18:35:24.00Z
734;Anselma;Gravie;2018-11-30T18:35:24.00Z;2018-11-30T18:35:24.00Z
735;Edouard;Hollow;2018-11-30T18:35:24.00Z;2018-11-30T18:35:24.00Z
736;Rivkah;Danielian;2018-11-30T18:35:24.00Z;2018-11-30T18:35:24.00Z
737;Locke;Gasking;2018-11-30T18:35:24.00Z;2018-11-30T18:35:24.00Z
738;Andrej;Pleasance;2018-11-30T18:35:24.00Z;2018-11-30T18:35:24.00Z
739;Shandee;Smeall;2018-11-30T18:35:24.00Z;2018-11-30T18:35:24.00Z
740;Arney;Simpson;2018-11-30T18:35:24.00Z;2018-11-30T18:35:24.00Z
741;Wandie;Curman;2018-11-30T18:35:24.00Z;2018-11-30T18:35:24.00Z
742;Tonye;Benedict;2018-11-30T18:35:24.00Z;2018-11-30T18:35:24.00Z
743;Fabien;Rapkins;2018-11-30T18:35:24.00Z;2018-11-30T18:35:24.00Z
744;Gib;Files;2018-11-30T18:35:24.00Z;2018-11-30T18:35:24.00Z
745;Mufinella;Daily;2018-11-30T18:35:24.00Z;2018-11-30T18:35:24.00Z
746;Silvan;Fleis;2018-11-30T18:35:24.00Z;2018-11-30T18:35:24.00Z
747;Perri;Croix;2018-11-30T18:35:24.00Z;2018-11-30T18:35:24.00Z
748;Richy;Marson;2018-11-30T18:35:24.00Z;2018-11-30T18:35:24.00Z
749;Lenka;Coupar;2018-11-30T18:35:24.00Z;2018-11-30T18:35:24.00Z
750;Wylie;Tonkinson;2018-11-30T18:35:24.00Z;2018-11-30T18:35:24.00Z
751;Rory;Growcott;2018-11-30T18:35:24.00Z;2018-11-30T18:35:24.00Z
752;Wilek;Muldownie;2018-11-30T18:35:24.00Z;2018-11-30T18:35:24.00Z
753;Brenn;MacKnockiter;2018-11-30T18:35:24.00Z;2018-11-30T18:35:24.00Z
754;Parke;Kalkofen;2018-11-30T18:35:24.00Z;2018-11-30T18:35:24.00Z
755;Arlana;Humpherston;2018-11-30T18:35:24.00Z;2018-11-30T18:35:24.00Z
756;Maxy;Syplus;2018-11-30T18:35:24.00Z;2018-11-30T18:35:24.00Z
757;Carlita;McCreagh;2018-11-30T18:35:24.00Z;2018-11-30T18:35:24.00Z
758;Rosie;Jewitt;2018-11-30T18:35:24.00Z;2018-11-30T18:35:24.00Z
759;Alix;Russell;2018-11-30T18:35:24.00Z;2018-11-30T18:35:24.00Z
760;Rozalie;Hallums;2018-11-30T18:35:24.00Z;2018-11-30T18:35:24.00Z
761;Trumaine;Fernanando;2018-11-30T18:35:24.00Z;2018-11-30T18:35:24.00Z
762;Torin;Reed;2018-11-30T18:35:24.00Z;2018-11-30T18:35:24.00Z
763;Elinor;Marrow;2018-11-30T18:35:24.00Z;2018-11-30T18:35:24.00Z
764;Shayna;Faulder;2018-11-30T18:35:24.00Z;2018-11-30T18:35:24.00Z
765;Jarrett;Casado;2018-11-30T18:35:24.00Z;2018-11-30T18:35:24.00Z
766;Dov;Rayhill;2018-11-30T18:35:24.00Z;2018-11-30T18:35:24.00Z
767;Gale;Petrushkevich;2018-11-30T18:35:24.00Z;2018-11-30T18:35:24.00Z
768;Danit;Geddis;2018-11-30T18:35:24.00Z;2018-11-30T18:35:24.00Z
769;Margo;Grassi;2018-11-30T18:35:24.00Z;2018-11-30T18:35:24.00Z
770;Clementius;Mather;2018-11-30T18:35:24.00Z;2018-11-30T18:35:24.00Z
771;Gottfried;Westpfel;2018-11-30T18:35:24.00Z;2018-11-30T18:35:24.00Z
772;Donelle;Skpsey;2018-11-30T18:35:24.00Z;2018-11-30T18:35:24.00Z
773;Samaria;Bonds;2018-11-30T18:35:24.00Z;2018-11-30T18:35:24.00Z
774;Silvio;Wrennall;2018-11-30T18:35:24.00Z;2018-11-30T18:35:24.00Z
775;Susan;Splevings;2018-11-30T18:35:24.00Z;2018-11-30T18:35:24.00Z
776;Jolee;Beecroft;2018-11-30T18:35:24.00Z;2018-11-30T18:35:24.00Z
777;Starr;Lewsy;2018-11-30T18:35:24.00Z;2018-11-30T18:35:24.00Z
778;Cosme;MacCallum;2018-11-30T18:35:24.00Z;2018-11-30T18:35:24.00Z
779;Brock;Wahlberg;2018-11-30T18:35:24.00Z;2018-11-30T18:35:24.00Z
780;Arney;Raikes;2018-11-30T18:35:24.00Z;2018-11-30T18:35:24.00Z
781;Lind;Cottee;2018-11-30T18:35:24.00Z;2018-11-30T18:35:24.00Z
782;Giovanni;Kopke;2018-11-30T18:35:24.00Z;2018-11-30T18:35:24.00Z
783;Nester;Lennie;2018-11-30T18:35:24.00Z;2018-11-30T18:35:24.00Z
784;Gilberta;Roffe;2018-11-30T18:35:24.00Z;2018-11-30T18:35:24.00Z
785;Quinton;Skures;2018-11-30T18:35:24.00Z;2018-11-30T18:35:24.00Z
786;Julietta;Grzelak;2018-11-30T18:35:24.00Z;2018-11-30T18:35:24.00Z
787;Brent;Bamell;2018-11-30T18:35:24.00Z;2018-11-30T18:35:24.00Z
788;Sissie;Elmar;2018-11-30T18:35:24.00Z;2018-11-30T18:35:24.00Z
789;Graham;Pren;2018-11-30T18:35:24.00Z;2018-11-30T18:35:24.00Z
790;Kelwin;Flay;2018-11-30T18:35:24.00Z;2018-11-30T18:35:24.00Z
791;Bartlet;Barsby;2018-11-30T18:35:24.00Z;2018-11-30T18:35:24.00Z
792;Cordy;Oxe;2018-11-30T18:35:24.00Z;2018-11-30T18:35:24.00Z
793;Cordie;O'Hallihane;2018-11-30T18:35:24.00Z;2018-11-30T18:35:24.00Z
794;Avictor;Ferrar;2018-11-30T18:35:24.00Z;2018-11-30T18:35:24.00Z
795;Cletus;Charrisson;2018-11-30T18:35:24.00Z;2018-11-30T18:35:24.00Z
796;Kilian;Pimley;2018-11-30T18:35:24.00Z;2018-11-30T18:35:24.00Z
797;Heriberto;Marquet;2018-11-30T18:35:24.00Z;2018-11-30T18:35:24.00Z
798;Edy;Youson;2018-11-30T18:35:24.00Z;2018-11-30T18:35:24.00Z
799;Lemmy;Haly;2018-11-30T18:35:24.00Z;2018-11-30T18:35:24.00Z
800;Shannen;Lowy;2018-11-30T18:35:24.00Z;2018-11-30T18:35:24.00Z
801;Yvonne;Tungay;2018-11-30T18:35:24.00Z;2018-11-30T18:35:24.00Z
802;North;Jeal;2018-11-30T18:35:24.00Z;2018-11-30T18:35:24.00Z
803;Normy;Tregear;2018-11-30T18:35:24.00Z;2018-11-30T18:35:24.00Z
804;Lamond;Roycroft;2018-11-30T18:35:24.00Z;2018-11-30T18:35:24.00Z
805;Tammy;Libero;2018-11-30T18:35:24.00Z;2018-11-30T18:35:24.00Z
806;Calida;Jesper;2018-11-30T18:35:24.00Z;2018-11-30T18:35:24.00Z
807;Candice;Mallender;2018-11-30T18:35:24.00Z;2018-11-30T18:35:24.00Z
808;Zonda;Bowmer;2018-11-30T18:35:24.00Z;2018-11-30T18:35:24.00Z
809;Nikolaos;Guisler;2018-11-30T18:35:24.00Z;2018-11-30T18:35:24.00Z
810;Kylen;Kidde;2018-11-30T18:35:24.00Z;2018-11-30T18:35:24.00Z
811;Lucina;Tzarkov;2018-11-30T18:35:24.00Z;2018-11-30T18:35:24.00Z
812;Filippo;Wadham;2018-11-30T18:35:24.00Z;2018-11-30T18:35:24.00Z
813;Urbanus;Blackney;2018-11-30T18:35:24.00Z;2018-11-30T18:35:24.00Z
814;Dorie;Callis;2018-11-30T18:35:24.00Z;2018-11-30T18:35:24.00Z
815;Lowell;Scheu;2018-11-30T18:35:24.00Z;2018-11-30T18:35:24.00Z
816;Isabeau;Webben;2018-11-30T18:35:24.00Z;2018-11-30T18:35:24.00Z
817;Sean;Faltskog;2018-11-30T18:35:24.00Z;2018-11-30T18:35:24.00Z
818;Brander;Osgood;2018-11-30T18:35:24.00Z;2018-11-30T18:35:24.00Z
819;Felice;Sweetsur;2018-11-30T18:35:24.00Z;2018-11-30T18:35:24.00Z
820;Valida;Early;2018-11-30T18:35:24.00Z;2018-11-30T18:35:24.00Z
821;Cal;Telling;2018-11-30T18:35:24.00Z;2018-11-30T18:35:24.00Z
822;Henrieta;Wright;2018-11-30T18:35:24.00Z;2018-11-30T18:35:24.00Z
823;Tiff;Ketchen;2018-11-30T18:35:24.00Z;2018-11-30T18:35:24.00Z
824;Lorita;Denisyev;2018-11-30T18:35:24.00Z;2018-11-30T18:35:24.00Z
825;Tersina;Symers;2018-11-30T18:35:24.00Z;2018-11-30T18:35:24.00Z
826;Gregorius;Matuszynski;2018-11-30T18:35:24.00Z;2018-11-30T18:35:24.00Z
827;Shelli;Dionisi;2018-11-30T18:35:24.00Z;2018-11-30T18:35:24.00Z
828;Percy;Sleit;2018-11-30T18:35:24.00Z;2018-11-30T18:35:24.00Z
829;Aili;Soppit;2018-11-30T18:35:24.00Z;2018-11-30T18:35:24.00Z
830;Marline;Appleby;2018-11-30T18:35:24.00Z;2018-11-30T18:35:24.00Z
831;Jarret;Jumonet;2018-11-30T18:35:24.00Z;2018-11-30T18:35:24.00Z
832;Karlan;Carolan;2018-11-30T18:35:24.00Z;2018-11-30T18:35:24.00Z
833;Emelda;Charlesworth;2018-11-30T18:35:24.00Z;2018-11-30T18:35:24.00Z
834;Normy;Tidball;2018-11-30T18:35:24.00Z;2018-11-30T18:35:24.00Z
835;Dex;Batram;2018-11-30T18:35:24.00Z;2018-11-30T18:35:24.00Z
836;Urson;Kirrage;2018-11-30T18:35:24.00Z;2018-11-30T18:35:24.00Z
837;Onida;Foker;2018-11-30T18:35:24.00Z;2018-11-30T18:35:24.00Z
838;Ceciley;Bridger;2018-11-30T18:35:24.00Z;2018-11-30T18:35:24.00Z
839;Dennie;Lohden;2018-11-30T18:35:24.00Z;2018-11-30T18:35:24.00Z
840;Coralie;Craigg;2018-11-30T18:35:24.00Z;2018-11-30T18:35:24.00Z
841;Pauline;Robiou;2018-11-30T18:35:24.00Z;2018-11-30T18:35:24.00Z
842;Amby;Ruos;2018-11-30T18:35:24.00Z;2018-11-30T18:35:24.00Z
843;Shanon;Loudiane;2018-11-30T18:35:24.00Z;2018-11-30T18:35:24.00Z
844;Noble;Gravenor;2018-11-30T18:35:24.00Z;2018-11-30T18:35:24.00Z
845;Cam;Troughton;2018-11-30T18:35:24.00Z;2018-11-30T18:35:24.00Z
846;Ray;Leavy;2018-11-30T18:35:24.00Z;2018-11-30T18:35:24.00Z
847;Kendre;Lethcoe;2018-11-30T18:35:24.00Z;2018-11-30T18:35:24.00Z
848;Correy;Dekeyser;2018-11-30T18:35:24.00Z;2018-11-30T18:35:24.00Z
849;Marjy;Mishaw;2018-11-30T18:35:24.00Z;2018-11-30T18:35:24.00Z
850;Margit;Giovanitti;2018-11-30T18:35:24.00Z;2018-11-30T18:35:24.00Z
851;Jennette;Elfitt;2018-11-30T18:35:24.00Z;2018-11-30T18:35:24.00Z
852;Sterling;Lurner;2018-11-30T18:35:24.00Z;2018-11-30T18:35:24.00Z
853;Jarred;Cases;2018-11-30T18:35:24.00Z;2018-11-30T18:35:24.00Z
854;Millicent;McGuigan;2018-11-30T18:35:24.00Z;2018-11-30T18:35:24.00Z
855;Gus;Cawdell;2018-11-30T18:35:24.00Z;2018-11-30T18:35:24.00Z
856;Elbert;Melville;2018-11-30T18:35:24.00Z;2018-11-30T18:35:24.00Z
857;Helli;Fawltey;2018-11-30T18:35:24.00Z;2018-11-30T18:35:24.00Z
858;Myrle;Exon;2018-11-30T18:35:24.00Z;2018-11-30T18:35:24.00Z
859;Friederike;Fayne;2018-11-30T18:35:24.00Z;2018-11-30T18:35:24.00Z
860;Livia;Lidbetter;2018-11-30T18:35:24.00Z;2018-11-30T18:35:24.00Z
861;Sallie;Pinnigar;2018-11-30T18:35:24.00Z;2018-11-30T18:35:24.00Z
862;Jinny;Counter;2018-11-30T18:35:24.00Z;2018-11-30T18:35:24.00Z
863;Zarah;Storch;2018-11-30T18:35:24.00Z;2018-11-30T18:35:24.00Z
864;Mahala;Noot;2018-11-30T18:35:24.00Z;2018-11-30T18:35:24.00Z
865;Lennie;Dobie;2018-11-30T18:35:24.00Z;2018-11-30T18:35:24.00Z
866;Hedy;Gecks;2018-11-30T18:35:24.00Z;2018-11-30T18:35:24.00Z
867;Marris;Crady;2018-11-30T18:35:24.00Z;2018-11-30T18:35:24.00Z
868;Cookie;Showers;2018-11-30T18:35:24.00Z;2018-11-30T18:35:24.00Z
869;Gabbi;Ridolfi;2018-11-30T18:35:24.00Z;2018-11-30T18:35:24.00Z
870;Waldo;Haselden;2018-11-30T18:35:24.00Z;2018-11-30T18:35:24.00Z
871;Erl;Buzin;2018-11-30T18:35:24.00Z;2018-11-30T18:35:24.00Z
872;Crichton;Malamore;2018-11-30T18:35:24.00Z;2018-11-30T18:35:24.00Z
873;Prent;Bestwall;2018-11-30T18:35:24.00Z;2018-11-30T18:35:24.00Z
874;Saudra;Meale;2018-11-30T18:35:24.00Z;2018-11-30T18:35:24.00Z
875;Elayne;Tooher;2018-11-30T18:35:24.00Z;2018-11-30T18:35:24.00Z
876;Geoff;Deakins;2018-11-30T18:35:24.00Z;2018-11-30T18:35:24.00Z
877;Elana;Batcheldor;2018-11-30T18:35:24.00Z;2018-11-30T18:35:24.00Z
878;Veda;De Bischof;2018-11-30T18:35:24.00Z;2018-11-30T18:35:24.00Z
879;Agretha;Durrans;2018-11-30T18:35:24.00Z;2018-11-30T18:35:24.00Z
880;Dennet;Shapter;2018-11-30T18:35:24.00Z;2018-11-30T18:35:24.00Z
881;Mikaela;Jellard;2018-11-30T18:35:24.00Z;2018-11-30T18:35:24.00Z
882;Elfrieda;Sheather;2018-11-30T18:35:24.00Z;2018-11-30T18:35:24.00Z
883;Moise;Souten;2018-11-30T18:35:24.00Z;2018-11-30T18:35:24.00Z
884;Wallace;Gresty;2018-11-30T18:35:24.00Z;2018-11-30T18:35:24.00Z
885;Annaliese;Panons;2018-11-30T18:35:24.00Z;2018-11-30T18:35:24.00Z
886;Silvia;Tadman;2018-11-30T18:35:24.00Z;2018-11-30T18:35:24.00Z
887;Gertruda;Feldbau;2018-11-30T18:35:24.00Z;2018-11-30T18:35:24.00Z
888;Mathias;Botte;2018-11-30T18:35:24.00Z;2018-11-30T18:35:24.00Z
889;Consuelo;Botte;2018-11-30T18:35:24.00Z;2018-11-30T18:35:24.00Z
890;Karissa;Rother;2018-11-30T18:35:24.00Z;2018-11-30T18:35:24.00Z
891;Jard;Hundley;2018-11-30T18:35:24.00Z;2018-11-30T18:35:24.00Z
892;Rica;Tilne;2018-11-30T18:35:24.00Z;2018-11-30T18:35:24.00Z
893;Isiahi;Puckham;2018-11-30T18:35:24.00Z;2018-11-30T18:35:24.00Z
894;Margalit;Fennell;2018-11-30T18:35:24.00Z;2018-11-30T18:35:24.00Z
895;Britt;Fryman;2018-11-30T18:35:24.00Z;2018-11-30T18:35:24.00Z
896;Gannon;Dolan;2018-11-30T18:35:24.00Z;2018-11-30T18:35:24.00Z
897;Inger;Featonby;2018-11-30T18:35:24.00Z;2018-11-30T18:35:24.00Z
898;Mart;Seefeldt;2018-11-30T18:35:24.00Z;2018-11-30T18:35:24.00Z
899;Dan;McCurtain;2018-11-30T18:35:24.00Z;2018-11-30T18:35:24.00Z
900;Charmion;Woollaston;2018-11-30T18:35:24.00Z;2018-11-30T18:35:24.00Z
901;Iver;Dursley;2018-11-30T18:35:24.00Z;2018-11-30T18:35:24.00Z
902;Marten;Hinsche;2018-11-30T18:35:24.00Z;2018-11-30T18:35:24.00Z
903;Mariellen;Edington;2018-11-30T18:35:24.00Z;2018-11-30T18:35:24.00Z
904;Rosalyn;Bowart;2018-11-30T18:35:24.00Z;2018-11-30T18:35:24.00Z
905;Kissiah;Uzelli;2018-11-30T18:35:24.00Z;2018-11-30T18:35:24.00Z
906;Emmy;Gallally;2018-11-30T18:35:24.00Z;2018-11-30T18:35:24.00Z
907;Erie;Patterfield;2018-11-30T18:35:24.00Z;2018-11-30T18:35:24.00Z
908;Svend;Scandwright;2018-11-30T18:35:24.00Z;2018-11-30T18:35:24.00Z
909;Donovan;Trenear;2018-11-30T18:35:24.00Z;2018-11-30T18:35:24.00Z
910;Shandra;Wilcock;2018-11-30T18:35:24.00Z;2018-11-30T18:35:24.00Z
911;Tobey;Keyzor;2018-11-30T18:35:24.00Z;2018-11-30T18:35:24.00Z
912;Hubert;Mowling;2018-11-30T18:35:24.00Z;2018-11-30T18:35:24.00Z
913;Ezmeralda;Phil;2018-11-30T18:35:24.00Z;2018-11-30T18:35:24.00Z
914;Tamarah;Jodrellec;2018-11-30T18:35:24.00Z;2018-11-30T18:35:24.00Z
915;Barde;Ashwell;2018-11-30T18:35:24.00Z;2018-11-30T18:35:24.00Z
916;Alonso;Crampton;2018-11-30T18:35:24.00Z;2018-11-30T18:35:24.00Z
917;Rhetta;Powland;2018-11-30T18:35:24.00Z;2018-11-30T18:35:24.00Z
918;Gideon;Renault;2018-11-30T18:35:24.00Z;2018-11-30T18:35:24.00Z
919;Andrey;Montez;2018-11-30T18:35:24.00Z;2018-11-30T18:35:24.00Z
920;Sonya;Gostling;2018-11-30T18:35:24.00Z;2018-11-30T18:35:24.00Z
921;Rafaelia;Spellessy;2018-11-30T18:35:24.00Z;2018-11-30T18:35:24.00Z
922;Clementina;Werrit;2018-11-30T18:35:24.00Z;2018-11-30T18:35:24.00Z
923;Cedric;Jerman;2018-11-30T18:35:24.00Z;2018-11-30T18:35:24.00Z
924;Orton;Filipowicz;2018-11-30T18:35:24.00Z;2018-11-30T18:35:24.00Z
925;Marianna;Hargrave;2018-11-30T18:35:24.00Z;2018-11-30T18:35:24.00Z
926;Tish;O'Doogan;2018-11-30T18:35:24.00Z;2018-11-30T18:35:24.00Z
927;Rowena;Coverdale;2018-11-30T18:35:24.00Z;2018-11-30T18:35:24.00Z
928;Ora;Baldetti;2018-11-30T18:35:24.00Z;2018-11-30T18:35:24.00Z
929;Juli;Stoak;2018-11-30T18:35:24.00Z;2018-11-30T18:35:24.00Z
930;Gino;Paskell;2018-11-30T18:35:24.00Z;2018-11-30T18:35:24.00Z
931;Bran;Fiennes;2018-11-30T18:35:24.00Z;2018-11-30T18:35:24.00Z
932;Annmarie;Laidlaw;2018-11-30T18:35:24.00Z;2018-11-30T18:35:24.00Z
933;Chelsy;Hallawell;2018-11-30T18:35:24.00Z;2018-11-30T18:35:24.00Z
934;Ludovika;Happel;2018-11-30T18:35:24.00Z;2018-11-30T18:35:24.00Z
935;Morey;Mundee;2018-11-30T18:35:24.00Z;2018-11-30T18:35:24.00Z
936;Gayel;Cecely;2018-11-30T18:35:24.00Z;2018-11-30T18:35:24.00Z
937;Ichabod;Shillaber;2018-11-30T18:35:24.00Z;2018-11-30T18:35:24.00Z
938;Perkin;Pritchett;2018-11-30T18:35:24.00Z;2018-11-30T18:35:24.00Z
939;Tull;Chesnut;2018-11-30T18:35:24.00Z;2018-11-30T18:35:24.00Z
940;Almeda;McCrisken;2018-11-30T18:35:24.00Z;2018-11-30T18:35:24.00Z
941;Vin;Costello;2018-11-30T18:35:24.00Z;2018-11-30T18:35:24.00Z
942;Christy;Ciobutaru;2018-11-30T18:35:24.00Z;2018-11-30T18:35:24.00Z
943;Noellyn;Ferriday;2018-11-30T18:35:24.00Z;2018-11-30T18:35:24.00Z
944;Claire;Meran;2018-11-30T18:35:24.00Z;2018-11-30T18:35:24.00Z
945;Magnum;Oran;2018-11-30T18:35:24.00Z;2018-11-30T18:35:24.00Z
946;Nicolette;Hatchell;2018-11-30T18:35:24.00Z;2018-11-30T18:35:24.00Z
947;Nicolais;Alliband;2018-11-30T18:35:24.00Z;2018-11-30T18:35:24.00Z
948;David;Gleasane;2018-11-30T18:35:24.00Z;2018-11-30T18:35:24.00Z
949;Marlane;Ruberti;2018-11-30T18:35:24.00Z;2018-11-30T18:35:24.00Z
950;Evelyn;Boutellier;2018-11-30T18:35:24.00Z;2018-11-30T18:35:24.00Z
951;Blanch;Goozee;2018-11-30T18:35:24.00Z;2018-11-30T18:35:24.00Z
952;Wald;Scyone;2018-11-30T18:35:24.00Z;2018-11-30T18:35:24.00Z
953;Pamella;Swatten;2018-11-30T18:35:24.00Z;2018-11-30T18:35:24.00Z
954;Kimmy;Heisham;2018-11-30T18:35:24.00Z;2018-11-30T18:35:24.00Z
955;Sauveur;Wrathall;2018-11-30T18:35:24.00Z;2018-11-30T18:35:24.00Z
956;Lauren;McKiddin;2018-11-30T18:35:24.00Z;2018-11-30T18:35:24.00Z
957;Amelie;O' Lone;2018-11-30T18:35:24.00Z;2018-11-30T18:35:24.00Z
958;Cornall;Jindrich;2018-11-30T18:35:24.00Z;2018-11-30T18:35:24.00Z
959;Garnet;Punt;2018-11-30T18:35:24.00Z;2018-11-30T18:35:24.00Z
960;Alia;Garnham;2018-11-30T18:35:24.00Z;2018-11-30T18:35:24.00Z
961;Cyrill;Bolmann;2018-11-30T18:35:24.00Z;2018-11-30T18:35:24.00Z
962;Adara;Mindenhall;2018-11-30T18:35:24.00Z;2018-11-30T18:35:24.00Z
963;Otis;Agnew;2018-11-30T18:35:24.00Z;2018-11-30T18:35:24.00Z
964;Tedd;Willoughey;2018-11-30T18:35:24.00Z;2018-11-30T18:35:24.00Z
965;Zara;Pargetter;2018-11-30T18:35:24.00Z;2018-11-30T18:35:24.00Z
966;Kalli;Ferreras;2018-11-30T18:35:24.00Z;2018-11-30T18:35:24.00Z
967;Fleurette;Fend;2018-11-30T18:35:24.00Z;2018-11-30T18:35:24.00Z
968;Manya;Ashfold;2018-11-30T18:35:24.00Z;2018-11-30T18:35:24.00Z
969;Donia;Karadzas;2018-11-30T18:35:24.00Z;2018-11-30T18:35:24.00Z
970;Cherin;Halso;2018-11-30T18:35:24.00Z;2018-11-30T18:35:24.00Z
971;Garrick;Shirland;2018-11-30T18:35:24.00Z;2018-11-30T18:35:24.00Z
972;Brandais;Goodey;2018-11-30T18:35:24.00Z;2018-11-30T18:35:24.00Z
973;Raffarty;Gamlyn;2018-11-30T18:35:24.00Z;2018-11-30T18:35:24.00Z
974;Yule;Raynton;2018-11-30T18:35:24.00Z;2018-11-30T18:35:24.00Z
975;Fields;Tirrell;2018-11-30T18:35:24.00Z;2018-11-30T18:35:24.00Z
976;Vilhelmina;Whetton;2018-11-30T18:35:24.00Z;2018-11-30T18:35:24.00Z
977;Giffy;Russe;2018-11-30T18:35:24.00Z;2018-11-30T18:35:24.00Z
978;Marys;Buzzing;2018-11-30T18:35:24.00Z;2018-11-30T18:35:24.00Z
979;Alva;Gladdifh;2018-11-30T18:35:24.00Z;2018-11-30T18:35:24.00Z
980;Bathsheba;Wehden;2018-11-30T18:35:24.00Z;2018-11-30T18:35:24.00Z
981;Brett;Ravelus;2018-11-30T18:35:24.00Z;2018-11-30T18:35:24.00Z
982;Susan;Instone;2018-11-30T18:35:24.00Z;2018-11-30T18:35:24.00Z
983;Lianna;Bandiera;2018-11-30T18:35:24.00Z;2018-11-30T18:35:24.00Z
984;Saw;Tigwell;2018-11-30T18:35:24.00Z;2018-11-30T18:35:24.00Z
985;Madonna;McDell;2018-11-30T18:35:24.00Z;2018-11-30T18:35:24.00Z
986;Chip;Feaveer;2018-11-30T18:35:24.00Z;2018-11-30T18:35:24.00Z
987;Breanne;Byrd;2018-11-30T18:35:24.00Z;2018-11-30T18:35:24.00Z
988;Doti;Rentoll;2018-11-30T18:35:24.00Z;2018-11-30T18:35:24.00Z
989;Terri-jo;Swinerd;2018-11-30T18:35:24.00Z;2018-11-30T18:35:24.00Z
990;Melba;Truman;2018-11-30T18:35:24.00Z;2018-11-30T18:35:24.00Z
991;Garey;Franck;2018-11-30T18:35:24.00Z;2018-11-30T18:35:24.00Z
992;Glenden;Bednall;2018-11-30T18:35:24.00Z;2018-11-30T18:35:24.00Z
993;Pippa;Chase;2018-11-30T18:35:24.00Z;2018-11-30T18:35:24.00Z
994;Meghann;Jaszczak;2018-11-30T18:35:24.00Z;2018-11-30T18:35:24.00Z
995;Berny;Plunkett;2018-11-30T18:35:24.00Z;2018-11-30T18:35:24.00Z
996;Gisele;Elstub;2018-11-30T18:35:24.00Z;2018-11-30T18:35:24.00Z
997;Ham;McVicar;2018-11-30T18:35:24.00Z;2018-11-30T18:35:24.00Z
998;Errol;Owain;2018-11-30T18:35:24.00Z;2018-11-30T18:35:24.00Z
999;Kassi;Boffey;2018-11-30T18:35:24.00Z;2018-11-30T18:35:24.00Z
1000;Elsi;Pawellek;2018-11-30T18:35:24.00Z;2018-11-30T18:35:24.00Z
